Division,WeightClassKg,Place,Name,Team,BodyweightKg,Best3SquatKg,Best3BenchKg,Best3DeadliftKg,TotalKg,Equipment,Event,Sex
Boys,51.71,1,Fernando Gonzalez,McAllen Memorial,51.71,140.61,97.52,167.83,405.97,Single-ply,SBD,M
Boys,51.71,2,Felipe Garza,McAllen,49.8,147.42,99.79,149.69,396.89,Single-ply,SBD,M
Boys,51.71,3,Jan Ramirez,PSJA North,51.48,136.08,90.72,117.93,344.73,Single-ply,SBD,M
Boys,55.79,1,Javier Farias,Mission,54.48,172.37,83.91,210.92,467.2,Single-ply,SBD,M
Boys,55.79,2,Kevin Trevino,McAllen Memorial,55.75,165.56,115.67,183.7,464.93,Single-ply,SBD,M
Boys,55.79,3,Stanely Davis,McAllen Memorial,54.52,154.22,108.86,149.69,412.77,Single-ply,SBD,M
Boys,55.79,4,Giovanni Salazar,La Joya,54.48,147.42,79.38,161.03,387.82,Single-ply,SBD,M
Boys,55.79,5,Fernando Mendoza,McAllen Rowe,55.61,131.54,90.72,163.29,385.55,Single-ply,SBD,M
Boys,55.79,6,Ramiro Yanez,PSJA,55.29,124.74,54.43,136.08,315.25,Single-ply,SBD,M
Boys,55.79,7,David Garza,La Joya Juarez-Lincoln,53.34,113.4,70.31,127.01,310.71,Single-ply,SBD,M
Boys,59.87,1,Alexandro Gonzalez,McAllen,59.38,151.95,88.45,161.03,401.43,Single-ply,SBD,M
Boys,59.87,2,Joe Barbarena,PSJA North,57.33,147.42,99.79,147.42,394.63,Single-ply,SBD,M
Boys,59.87,3,Robert Quintanilla,PSJA,59.78,151.95,68.04,142.88,362.87,Single-ply,SBD,M
Boys,67.13,1,Mario Marquez,Mission,64.86,224.53,113.4,210.92,548.85,Single-ply,SBD,M
Boys,67.13,2,Fernie Briones,McAllen Memorial,66.9,183.7,127.01,190.51,501.22,Single-ply,SBD,M
Boys,67.13,3,Jackson Littles,PSJA North,66.59,190.51,115.67,192.78,498.95,Single-ply,SBD,M
Boys,67.13,4,Kameron Maples,McAllen Memorial,65.73,161.03,113.4,179.17,453.59,Single-ply,SBD,M
Boys,67.13,5,Adan Elizondo,La Joya,66.09,158.76,108.86,165.56,433.18,Single-ply,SBD,M
Boys,67.13,6,Lino Rivera,La Joya,59.92,156.49,90.72,156.49,403.7,Single-ply,SBD,M
Boys,67.13,7,Fidencio Ortega,La Joya Juarez-Lincoln,63.82,151.95,95.25,154.22,401.43,Single-ply,SBD,M
Boys,67.13,8,Nicolas Carpio,PSJA,66.45,138.35,83.91,122.47,344.73,Single-ply,SBD,M
Boys,74.84,1,Fabian Rodriguez,McAllen Memorial,74.66,199.58,138.35,188.24,526.17,Single-ply,SBD,M
Boys,74.84,2,Seven Sanchez,PSJA North,73.3,174.63,113.4,197.31,485.34,Single-ply,SBD,M
Boys,74.84,3,Tyler Rosales,PSJA North,74.3,188.24,102.06,188.24,478.54,Single-ply,SBD,M
Boys,74.84,4,Andrew Campos,PSJA,74.48,163.29,108.86,163.29,435.45,Single-ply,SBD,M
Boys,74.84,5,Leonardo Perez,Mission,70.03,142.88,97.52,167.83,408.23,Single-ply,SBD,M
Boys,74.84,6,Joshua Ortiz,McAllen Rowe,70.03,156.49,90.72,156.49,403.7,Single-ply,SBD,M
Boys,74.84,DQ,Ruben D Saenz III,McAllen Rowe,69.04,176.9,92.99,,,Single-ply,SBD,M
Boys,74.84,DQ,Javier Prichardo,PSJA,74.75,222.26,124.74,,,Single-ply,SBD,M
Boys,82.1,1,Jonas Ortiz,McAllen Rowe,80.51,183.7,120.2,213.19,517.1,Single-ply,SBD,M
Boys,82.1,2,Adrian Lira,McAllen Memorial,77.11,183.7,133.81,192.78,510.29,Single-ply,SBD,M
Boys,82.1,3,Elian Padilla,La Joya Juarez-Lincoln,82.01,188.24,104.33,192.78,485.34,Single-ply,SBD,M
Boys,89.81,1,Aaron Alvarez,PSJA North,85.55,281.23,149.69,247.21,678.12,Single-ply,SBD,M
Boys,89.81,2,Gabriel Sanchez,McAllen,88.86,265.35,129.27,217.72,612.35,Single-ply,SBD,M
Boys,89.81,3,Alter Arenas,PSJA North,82.51,238.14,133.81,224.53,596.47,Single-ply,SBD,M
Boys,89.81,4,Miguel Rendon,Mission,84.41,213.19,133.81,233.6,580.6,Single-ply,SBD,M
Boys,89.81,5,Gonzalo Perez,Mission,85.77,224.53,129.27,219.99,573.79,Single-ply,SBD,M
Boys,89.81,6,Kevin Cantu,PSJA North,89.27,240.4,133.81,192.78,566.99,Single-ply,SBD,M
Boys,89.81,7,Roland Briseno,McAllen,86.86,226.8,158.76,170.1,555.65,Single-ply,SBD,M
Boys,89.81,8,Aj Flores,Mission,89.81,195.04,136.08,222.26,553.38,Single-ply,SBD,M
Boys,89.81,9,Erik Guzman,La Joya Juarez-Lincoln,85,217.72,133.81,199.58,551.11,Single-ply,SBD,M
Boys,89.81,10,Ben Passement,McAllen,87.77,219.99,136.08,185.97,542.04,Single-ply,SBD,M
Boys,89.81,11,David Saldana,McAllen Rowe,88,197.31,111.13,204.12,512.56,Single-ply,SBD,M
Boys,89.81,12,Marc Garcia,La Joya,86.95,208.65,111.13,170.1,489.88,Single-ply,SBD,M
Boys,89.81,13,Angel Olvera,La Joya,83.64,161.03,70.31,158.76,390.09,Single-ply,SBD,M
Boys,89.81,DQ,Alex Galaviz,La Joya,86.68,183.7,,,,Single-ply,SBD,M
Boys,89.81,DQ,Alejandro Garcia,McAllen,88.81,188.24,88.45,,,Single-ply,SBD,M
Boys,99.79,1,Juan Flores,PSJA,98.66,294.84,185.97,260.82,741.62,Single-ply,SBD,M
Boys,99.79,2,Sebastian Buiton,McAllen,97.98,288.03,156.49,260.82,705.34,Single-ply,SBD,M
Boys,99.79,3,Eric Gutierrez,Mission,95.16,233.6,151.95,208.65,594.21,Single-ply,SBD,M
Boys,99.79,4,Axel Hernandez #1,McAllen Memorial,91.44,215.46,129.27,242.67,587.4,Single-ply,SBD,M
Boys,99.79,5,Jesus Chavana,La Joya,98.52,222.26,117.93,244.94,585.13,Single-ply,SBD,M
Boys,99.79,6,Aaron Gonzalez,McAllen,95.84,201.85,124.74,235.87,562.45,Single-ply,SBD,M
Boys,99.79,7,Daniel Alejandro,McAllen Rowe,97.07,219.99,133.81,204.12,557.92,Single-ply,SBD,M
Boys,99.79,8,Luis Venecia,La Joya Juarez-Lincoln,91.22,213.19,131.54,208.65,553.38,Single-ply,SBD,M
Boys,99.79,9,Robert Grimaldo,PSJA,92.22,222.26,117.93,190.51,530.7,Single-ply,SBD,M
Boys,99.79,10,Arturo Del Angel,La Joya,99.56,197.31,129.27,199.58,526.17,Single-ply,SBD,M
Boys,99.79,11,Erik Flores,La Joya Juarez-Lincoln,92.12,204.12,108.86,192.78,505.76,Single-ply,SBD,M
Boys,99.79,12,Christopher Martinez,PSJA North,99.02,201.85,113.4,188.24,503.49,Single-ply,SBD,M
Boys,99.79,DQ,Julian Hernandez,McAllen Memorial,93.67,,,,,Single-ply,SBD,M
Boys,109.77,1,Daniel Domian,McAllen Memorial,107.14,240.4,170.1,240.4,650.91,Single-ply,SBD,M
Boys,109.77,2,Fabian Ahumada,Mission,100.79,244.94,129.27,233.6,607.81,Single-ply,SBD,M
Boys,109.77,3,Steven Pedraza,McAllen,109.36,224.53,142.88,231.33,598.74,Single-ply,SBD,M
Boys,109.77,4,Ezequiel Garcia,La Joya Juarez-Lincoln,103.28,219.99,138.35,190.51,548.85,Single-ply,SBD,M
Boys,109.77,5,Manny Castillo,PSJA,108.09,231.33,129.27,183.7,544.31,Single-ply,SBD,M
Boys,109.77,6,Eddie Alaniz,Mission,106.46,179.17,124.74,208.65,512.56,Single-ply,SBD,M
Boys,109.77,7,Christian Hernandez,La Joya Juarez-Lincoln,106.78,208.65,111.13,192.78,512.56,Single-ply,SBD,M
Boys,109.77,8,Carlos Calvillo,La Joya,107.82,195.04,111.13,185.97,492.15,Single-ply,SBD,M
Boys,124.74,1,Steven Alvarez,Mission,122.42,283.5,172.37,249.48,705.34,Single-ply,SBD,M
Boys,124.74,2,Osiel Alonso,La Joya Juarez-Lincoln,121.06,254.01,149.69,219.99,623.69,Single-ply,SBD,M
Boys,124.74,3,Isreal Moncivais,La Joya Juarez-Lincoln,117.93,244.94,145.15,231.33,621.42,Single-ply,SBD,M
Boys,124.74,4,Robert Garza,PSJA,116.21,249.48,149.69,204.12,603.28,Single-ply,SBD,M
Boys,124.74,5,Jesse Garza,McAllen Rowe,116.98,204.12,147.42,222.26,573.79,Single-ply,SBD,M
Boys,124.74,6,Aalok Zimmerman,McAllen Rowe,124.38,229.06,140.61,190.51,560.19,Single-ply,SBD,M
Boys,124.74,7,Aaron Noriega,PSJA,119.07,219.99,142.88,188.24,551.11,Single-ply,SBD,M
Boys,124.74,8,Martin Rodriguez #5,McAllen,120.25,215.46,120.2,181.44,517.1,Single-ply,SBD,M
Boys,124.74+,1,Jose Chavez,La Joya,176.95,340.19,172.37,258.55,771.11,Single-ply,SBD,M
Boys,124.74+,2,Bryan Aguillon,McAllen Rowe,136.85,294.84,151.95,265.35,712.14,Single-ply,SBD,M
Boys,124.74+,3,Sergio Reyna,McAllen Memorial,127.37,299.37,183.7,226.8,709.87,Single-ply,SBD,M
Boys,124.74+,4,Frank Saucedo,PSJA North,141.79,299.37,176.9,226.8,703.07,Single-ply,SBD,M
Boys,124.74+,5,Zachery Clemons,Mission,130.73,269.89,167.83,263.08,700.8,Single-ply,SBD,M
Boys,124.74+,6,Joel Iracheta,PSJA North,137.12,281.23,181.44,224.53,687.19,Single-ply,SBD,M
Boys,124.74+,7,Jacob Mata,McAllen Rowe,141.75,217.72,174.63,208.65,601.01,Single-ply,SBD,M
Boys,124.74+,8,Jimmy Talamantes,McAllen Rowe,140.98,215.46,122.47,170.1,508.02,Single-ply,SBD,M
Boys,124.74+,9,Juan Villagomez,La Joya Juarez-Lincoln,132.86,185.97,129.27,176.9,492.15,Single-ply,SBD,M
