Place,Name,BirthYear,WeightClassKg,BodyweightKg,Team,Bench1Kg,Bench2Kg,Bench3Kg,Best3BenchKg,TotalKg,Event,Equipment,Sex,Division
1,Ulrike Fischer,1958,44,43.2,Hasberg,57.5,-60,60,60,60,B,Single-ply,F,Open
2,Meike Roth,1960,44,42.5,Grotezingen,52.5,57.5,-60,57.5,57.5,B,Single-ply,F,Open
1,Christa Obermeier,1961,48,44.2,Baju Munchen,62.5,67.5,70,70,70,B,Single-ply,F,Open
2,Edith Scherp,1958,48,46.1,Wurzburg 05,50,52.5,-55,52.5,52.5,B,Single-ply,F,Open
3,Rita Niemeier,1962,48,47.3,KSC Hofgeis.,37.5,40,-42.5,40,40,B,Single-ply,F,Open
1,Petra Mayer,1962,52,51.8,Hasberg,60,-65,65,65,65,B,Single-ply,F,Open
2,Ariane Linde,1968,52,51,Russelsheim,60,62.5,-65,62.5,62.5,B,Single-ply,F,Open
3,Rosemarie Krüger,1937,52,51.2,TSG Füssen,57.5,60,-62.5,60,60,B,Single-ply,F,Open
4,Iris Keimig,1957,52,51,KSV Langen,57.5,-60,-60,57.5,57.5,B,Single-ply,F,Open
5,Marion Kauss,1968,52,48.2,Baju Munchen,47.5,-50,-50,47.5,47.5,B,Single-ply,F,Open
1,Gabi Holzmann,1953,56,56,Worishofen,82.5,85,87.5,87.5,87.5,B,Single-ply,F,Open
2,Rosi Rickert,1953,56,52.7,Aschaffenburg,70,72.5,-75,72.5,72.5,B,Single-ply,F,Open
3,Marita Ripper,1964,56,55.4,Griesheim,62.5,-65,-65,62.5,62.5,B,Single-ply,F,Open
4,Renate Limmer,1967,56,55.7,Hasberg,60,-62.5,62.5,62.5,62.5,B,Single-ply,F,Open
5,Comelia Lorson,1963,56,54.6,Schaffhausen,52.5,55,-57.5,55,55,B,Single-ply,F,Open
6,Manuela Kode,1966,60,59.9,Hofgeismar,50,52.5,-55,52.5,52.5,B,Single-ply,F,Open
7,Monika Kohner,1961,56,55.9,Worishofen,47.5,50,-55,50,50,B,Single-ply,F,Open
8,Martina Desel,1960,56,54.8,Hofgeismar,40,-45,-45,40,40,B,Single-ply,F,Open
1,Silvana Bollmann,1956,60,59.8,AC Am berg,82.5,87.5,90,90,90,B,Single-ply,F,Open
2,Irnga Wohlhoefler,1960,60,59.7,Hasberg,80,82.5,-85,82.5,82.5,B,Single-ply,F,Open
3,Monika Bresler,1958,60,58.8,Furth,80,-85,-85,80,80,B,Single-ply,F,Open
4,Renate Frank,1951,60,59.8,KSV H.Kassel,80,-85,-85,80,80,B,Single-ply,F,Open
5,Vera Loch,1960,60,59.4,TV Saarlouis,70,-75,75,75,75,B,Single-ply,F,Open
6,Birgit Kross,1961,60,58.3,Baju Munchen,50,55,-57.5,55,55,B,Single-ply,F,Open
7,Gabi Nebenführ,1963,60,59.5,Hofgeismar,52.5,55,-57.5,55,55,B,Single-ply,F,Open
1,Petra Lischke,1965,67.5,66.6,Baju Munchen,92.5,97.5,-100,97.5,97.5,B,Single-ply,F,Open
2,Angelika Beck,1960,67.5,63.3,Aschaffenburg,80,85,90,90,90,B,Single-ply,F,Open
3,Regine Hunsinger,1965,67.5,67,ACS Darmstadt,85,87.5,-90,87.5,87.5,B,Single-ply,F,Open
4,Ute Mehlhase,1962,67.5,63.4,Pallas Duisb.,-82.5,82.5,85,85,85,B,Single-ply,F,Open
6,Stef Giannoulidis,1959,67.5,64.9,KSV Power-Team,-82.5,-82.5,82.5,82.5,82.5,B,Single-ply,F,Open
7,Renate Weiss,1957,67.5,63.1,Mengede,65,-67.5,67.5,67.5,67.5,B,Single-ply,F,Open
8,Angelika Ruf,1957,67.5,64,Hasberg,60,65,67.5,67.5,67.5,B,Single-ply,F,Open
9,Margaret De Roeck,1953,67.5,66.5,Füssen,-67.5,67.5,-70,67.5,67.5,B,Single-ply,F,Open
1,Michaela Ruhland,1969,75,74.4,Rosenberg,90,-100,100,100,100,B,Single-ply,F,Open
2,Heike Petzmeier,1960,75,71.4,Reinbeck,90,95,97.5,97.5,97.5,B,Single-ply,F,Open
3,Sabina De Voss,1961,75,68.1,Duisburg,75,-77.5,-77.5,75,75,B,Single-ply,F,Open
4,Angela Schroth,1954,60,57.8,KSV Langen,67.5,70,-72.5,70,70,B,Single-ply,F,Open
5,Annemarie Haapp,1954,67.5,64.4,Hasberg,60,65,-67.5,65,65,B,Single-ply,F,Open
6,Eva Bruckner,1954,75,67.6,,60,62.5,-65,62.5,62.5,B,Single-ply,F,Open
7,Gabriele Fuchs,1963,75,70.1,Frankfurter TG,60,62.5,-65,62.5,62.5,B,Single-ply,F,Open
1,Uschi Henes,1966,82.5,80.8,TSV Burgau,87.5,-92.5,92.5,92.5,92.5,B,Single-ply,F,Open
2,Komelia Gosmann,1958,82.5,76.1,KSV Langen,57.5,62.5,65,65,65,B,Single-ply,F,Open
1,Susanne Ott,1962,90,88.1,KSV Langen,75,77.5,80,80,80,B,Single-ply,F,Open
1,Rita Fries,1953,90+,112.5,Goslar,80,92.5,95,95,95,B,Single-ply,F,Open
1,Bernd Brüning,1959,48,44.4,TSV Reinbeck,-85,85,90,90,90,B,Single-ply,M,Open
1,Gerhard Grimm,1960,56,55.7,Hasberg,87.5,92.5,-95,92.5,92.5,B,Single-ply,M,Open
2,Wemer Heinzl,1962,56,54.5,Wurzburg 05,-80,80,-85,80,80,B,Single-ply,M,Open
1,Tino Kunz,1964,60,58.8,Wissenbach,135,-140,-141,135,135,B,Single-ply,M,Open
2,Emst Reuch,1940,60,59.6,Tuttlingen,115,120,-122.5,120,120,B,Single-ply,M,Open
3,Andre Siemon,1966,60,59.6,KSC Kassel,110,-117.5,117.5,117.5,117.5,B,Single-ply,M,Open
1,Markus Stappenbeck,1963,67.5,66.9,Bud. Bocholt,155,160,-165,160,160,B,Single-ply,M,Open
2,Herbrt Koch,1956,67.5,66.9,Hasberg,140,145,-150,145,145,B,Single-ply,M,Open
3,Wemer Stubbe,1957,67.5,66.5,FT Blumenthal,125,-127.5,-127.5,125,125,B,Single-ply,M,Open
4,Jürgen Bock,1958,67.5,66,FT Blumenthal,115,117.5,-120,117.5,117.5,B,Single-ply,M,Open
5,Dieter Bueschl,1965,,,Neuaubing,105,112.5,115,115,115,B,Single-ply,M,Open
6,Wolfgang Kroner,1952,67.5,66.4,TSV Reinbeck,100,105,107.5,107.5,107.5,B,Single-ply,M,Open
1,Rüdiger Riehm,1965,75,74.6,Schaffhausen,185,-195,-195,185,185,B,Single-ply,M,Open
2,Dieter Wolff,1953,75,74.3,AC Amberg,162.5,167.5,-170,167.5,167.5,B,Single-ply,M,Open
3,Michael Schmitt,1962,75,74.3,AC Oppenau,160,-165,165,165,165,B,Single-ply,M,Open
4,Egon Dudat,1937,75,74.8,ESV Neuaubing,140,147.5,-152.5,147.5,147.5,B,Single-ply,M,Open
5,Klaus Schmitt,1952,75,75,ASV Grotzingen,140,145,-147.5,145,145,B,Single-ply,M,Open
6,Christoph Trukan,1948,75,73.5,ASV Griesheim,140,-145,-145,140,140,B,Single-ply,M,Open
7,Franz Hampp,1956,75,72,Hasberg,130,135,-140,135,135,B,Single-ply,M,Open
8,Torsten Weirach,1962,75,72.9,VfL Duisburg,125,-130,-130,125,125,B,Single-ply,M,Open
1,Rudolf Kollmann,1956,82.5,80,ASV Neumarkt,170,177.5,180,180,180,B,Single-ply,M,Open
2,Roland Götz,1946,82.5,79,AC Openau,165,172.5,-177.5,172.5,172.5,B,Single-ply,M,Open
3,Arthur Hiner,1957,82.5,81.1,KSC1 Amberg,165,172.5,-175,172.5,172.5,B,Single-ply,M,Open
4,Martin Spehar,1960,82.5,82.4,Kolner ACT1882,-172.5,172.5,-180,172.5,172.5,B,Single-ply,M,Open
5,Franz Waibel,1957,82.5,79.1,Hasberg,150,-157.5,157.5,157.5,157.5,B,Single-ply,M,Open
DQ,Thomas Hustede,1962,82.5,80.7,FT Blumenthal,-170,-170,-170,,,B,Single-ply,M,Open
1,Udo Krüger,1958,90,87.6,FCL Rüsselsheim,205.5,210,-215,210,210,B,Single-ply,M,Open
2,Michael Wende,1955,90,88.2,SNW Berlin,190,-200.5,200.5,200.5,200.5,B,Single-ply,M,Open
3,Gemot Fischer,1958,90,88.6,Hassberg,190,195,-200,195,195,B,Single-ply,M,Open
4,Hans Matejka,1958,90,88.7,Baju München,195,-200,-202.5,195,195,B,Single-ply,M,Open
5,Thomas Mrotzek,1960,90,89,TSV Reinbeck,182.5,-187.5,-187.5,182.5,182.5,B,Single-ply,M,Open
6,Udo Dettmarq,1950,90,89.9,SV Westrholt,-175,182.5,-187.5,182.5,182.5,B,Single-ply,M,Open
7,Wemer Mayer,1956,90,88.5,Hasberg,160,165,170,170,170,B,Single-ply,M,Open
8,Gerhard Romer,1958,90,89.4,TV Haldenwang,160,170,-172.5,170,170,B,Single-ply,M,Open
9,Reinhold Schaumann,1950,90,87,Kolner AC1882,155,160,165,165,165,B,Single-ply,M,Open
10,Josef Bamesreiter,1948,90,89,Bay.Landshut,165,-170,-170,165,165,B,Single-ply,M,Open
11,Jurgen Flügel,1962,90,87.2,FCL Rüsselsheim,145,150,-155,150,150,B,Single-ply,M,Open
12,Georg Lutz,1963,90,89,Hasbrg,140,147.5,-152.5,147.5,147.5,B,Single-ply,M,Open
1,Georg Schweitzer,1961,100,93.7,Powerfit Hagen,200,207.5,212.5,212.5,212.5,B,Single-ply,M,Open
2,Horst Strumat,1951,100,96,KSV Langen,200,205,210,210,210,B,Single-ply,M,Open
3,Norbert Siodlaczek,1963,100,96.7,KSC Kassel,195,202.5,207.5,207.5,207.5,B,Single-ply,M,Open
4,Peter Benesch,1957,100,97.1,ASV Griesheim,205,-207.5,-210,205,205,B,Single-ply,M,Open
5,Karl Hirtreiter,1960,100,98,Bay.Landshut,195,202.5,-207.5,202.5,202.5,B,Single-ply,M,Open
6,Werner Wendt,1939,100,96.9,Baju.München,-190,190,-200,190,190,B,Single-ply,M,Open
7,Lothar Pietz,1958,100,99.83,MTV Fürth,172.5,-177.5,177.5,177.5,177.5,B,Single-ply,M,Open
8,Robert Grossel,1959,100,90.1,Baju München,-172.5,175,-180,175,175,B,Single-ply,M,Open
9,Peter Ankerski,1958,100,98.6,VFLDuisburg-S,-160,160,165,165,165,B,Single-ply,M,Open
DQ,Ralf Kühn,1957,100,97.2,ACH Berlin,-195,,-205,,,B,Single-ply,M,Open
1,Walter Kurda,1953,110,102.5,KolnerAC1882,190,197.5,200,200,200,B,Single-ply,M,Open
2,Bernhard Kudra,1964,110,100.1,Rüsselsheim,185,-190,195,195,195,B,Single-ply,M,Open
3,Rainer Harrer,1954,110,106.5,AC Marburg,-190,-190,190,190,190,B,Single-ply,M,Open
4,Michael Gar,1955,110,106.5,KSV Rosenberg,180,185,-190,185,185,B,Single-ply,M,Open
1,Michael Brügger,1961,125,120.4,AC Soest,220,240,-252.5,240,240,B,Single-ply,M,Open
2,Klaus Workuka,1965,125,113.7,Baju München,-205,205,-210,205,205,B,Single-ply,M,Open
1,Michael Roos,1964,125+,128.4,Rüsselsheim,210,215,220,220,220,B,Single-ply,M,Open
2,Horst Volke,1938,125+,133.2,Pallas Duisburg,200,-210,210,210,210,B,Single-ply,M,Open
3,Wemer Selig,1962,125+,129.8,KSV Bochum,200,205,-207.5,205,205,B,Single-ply,M,Open
4,Dieter Schneider,1941,125+,145.1,JSV Hannover,185,-195,,185,185,B,Single-ply,M,Open
