Place,Name,Sex,BirthDate,Age,Equipment,Division,BodyweightKg,WeightClassKg,Squat1Kg,Squat2Kg,Squat3Kg,Best3SquatKg,Bench1Kg,Bench2Kg,Bench3Kg,Best3BenchKg,Deadlift1Kg,Deadlift2Kg,Deadlift3Kg,Best3DeadliftKg,TotalKg,Event
1,Natali Hall,F,1980-12-15,41,Raw,F_MR_1_APF,59.4,60,87.5,97.5,105,105,40,47.5,-52.5,47.5,102.5,110,115,115,267.5,SBD
1,Wendy Brown,F,1974-05-07,47,Raw,F_MR_2_APF,81.3,82.5,90,95,102.5,102.5,62.5,-65,65,65,137.5,-140,140,140,307.5,SBD
1,Kaley Griffin,F,1991-02-20,30,Raw,F_OR_APF,81.2,82.5,85,92.5,102.5,102.5,57.5,62.5,-67.5,62.5,125,135,140,140,305,SBD
1,Alese Holzmeyer,F,1985-04-19,36,Raw,F_OR_APF,99,90+,140,-150,-150,140,67.5,72.5,77.5,77.5,147.5,160,-170,160,377.5,SBD
2,Bridget Riley,F,1989-04-03,32,Raw,F_OR_APF,97.3,90+,105,112.5,117.5,117.5,65,70,75,75,145,155,157.5,157.5,350,SBD
1,Alese Holzmeyer,F,1985-04-19,36,Raw,F_SR_APF,99,90+,140,-150,-150,140,67.5,72.5,77.5,77.5,147.5,160,-170,160,377.5,SBD
1,Kayla Pursifull,F,2006-03-28,15,Raw,F_TR_1_APF,62.2,67.5,65,80,92.5,92.5,32.5,-42.5,-42.5,32.5,60,82.5,-92.5,82.5,207.5,SBD
1,Hannah Vowels,F,2000-05-06,21,Wraps,F_JCR_APF,94,90+,107.5,120,-132.5,120,57.5,-62.5,-62.5,57.5,130,-137.5,-140,130,307.5,SBD
1,Angie Moore,F,1977-10-08,44,Wraps,F_MCR_1_APF,91.4,90+,170,185,192.5,192.5,90,100,105,105,182.5,197.5,-200,197.5,495,SBD
2,Nicole Spencer,F,1980-10-27,41,Wraps,F_MCR_1_APF,110.6,90+,147.5,-165,170,170,80,-87.5,87.5,87.5,137.5,-147.5,-147.5,137.5,395,SBD
1,Brittany Brown,F,1993-09-09,28,Raw,F_OR_APF,71.1,75,100,-105,107.5,107.5,65,67.5,-70,67.5,117.5,127.5,137.5,137.5,312.5,SBD
2,Nicole Kraatz,F,1993-02-15,28,Raw,F_OR_APF,74.4,75,105,-107.5,-107.5,105,52.5,55,57.5,57.5,-137.5,137.5,142.5,142.5,305,SBD
1,BeaJai Corwin,F,1994-04-24,27,Wraps,F_OCR_APF,81.4,82.5,142.5,-147.5,150,150,75,-80,-80,75,150,157.5,167.5,167.5,392.5,SBD
1,Angie Moore,F,1977-10-08,44,Wraps,F_OCR_APF,91.4,90+,170,185,192.5,192.5,90,100,105,105,182.5,197.5,-200,197.5,495,SBD
1,Alex Register,M,1999-03-18,22,Raw,M_JR_APF,114.2,125,227.5,-237.5,-237.5,227.5,-160,-160,160,160,227.5,-230,-230,227.5,615,SBD
1,Scott Hehl,M,1960-07-07,61,Raw,M_MR_5_APF,109.2,110,117.5,125,142.5,142.5,105,-110,-120,105,145,160,172.5,172.5,420,SBD
1,Adam Horn,M,1993-06-08,28,Raw,M_OR_APF,72.9,75,130,140,152.5,152.5,95,100,-107.5,100,190,205,215,215,467.5,SBD
2,Robert King,M,2005-12-13,16,Raw,M_OR_APF,70.5,75,140,157.5,167.5,167.5,72.5,-87.5,-87.5,72.5,192.5,-207.5,-207.5,192.5,432.5,SBD
3,Ryan Embry,M,1993-04-18,28,Raw,M_OR_APF,73.4,75,110,-115,115,115,117.5,122.5,-135,122.5,150,165,172.5,172.5,410,SBD
1,Tyler Tichenor,M,1994-07-03,27,Raw,M_OR_APF,80.8,82.5,190,210,227.5,227.5,-150,165,-182.5,165,205,230,255,255,647.5,SBD
1,Steve Turner,M,1988-10-26,33,Raw,M_OR_APF,122.4,125,217.5,235,240,240,180,190,-197.5,190,220,237.5,-252.5,237.5,667.5,SBD
2,Tristin Choate,M,1997-07-28,24,Raw,M_OR_APF,134.8,140,190,205,220,220,102.5,110,-117.5,110,207.5,227.5,-240,227.5,557.5,SBD
1,Zachary Roberts,M,1985-10-27,36,Raw,M_SR_APF,81.8,82.5,105,-107.5,107.5,107.5,85,87.5,-90,87.5,165,167.5,172.5,172.5,367.5,SBD
1,Steve Turner,M,1988-10-26,33,Raw,M_SR_APF,122.4,125,217.5,235,240,240,180,190,-197.5,190,220,237.5,-252.5,237.5,667.5,SBD
1,Robert King,M,2005-12-13,16,Raw,M_TR_2_APF,70.5,75,140,157.5,167.5,167.5,72.5,-87.5,-87.5,72.5,192.5,-207.5,-207.5,192.5,432.5,SBD
1,Taylor Raseta,M,1999-06-07,22,Raw,M_JR_APF,61.5,67.5,95,102.5,110,110,50,57.5,60,60,105,115,-125,115,285,SBD
1,Michelle Partenheimer,F,2000-06-08,21,Raw,F_JR_APF,65,67.5,77.5,82.5,-87.5,82.5,45,-50,-50,45,102.5,110,122.5,122.5,250,SBD
1,Nathan Brown,M,2001-05-18,20,Wraps,M_JCR_APF,79.8,82.5,145,147.5,150,150,92.5,97.5,102.5,102.5,170,180,200,200,452.5,SBD
1,Andrew Pajor,M,1998-12-17,23,Wraps,M_JCR_APF,98.4,100,235,247.5,-257.5,247.5,140,-145,-145,140,245,262.5,-267.5,262.5,650,SBD
1,Matt Bell,M,1999-03-14,22,Raw,M_JR_APF,104.4,110,157.5,-175,187.5,187.5,-112.5,117.5,-125,117.5,170,187.5,202.5,202.5,507.5,SBD
1,Joshua Girdler,M,1980-04-22,41,Wraps,M_MCR_1_APF,95.4,100,235,-242.5,-242.5,235,155,160,-165,160,260,265,-272.5,265,660,SBD
1,Patrick Blumer,M,1976-12-28,45,Wraps,M_MCR_2_APF,99.7,100,152.5,-167.5,-167.5,152.5,105,112.5,-125,112.5,170,-185,-192.5,170,435,SBD
1,Taylor Raseta,M,1999-06-07,22,Raw,M_OR_APF,61.5,67.5,95,102.5,110,110,50,57.5,60,60,105,115,-125,115,285,SBD
1,Ethan Book,M,1991-05-27,30,Wraps,M_OCR_APF,85.6,90,182.5,202.5,210,210,145,152.5,-157.5,152.5,210,227.5,235,235,597.5,SBD
2,Dakoda Choate,M,1990-09-11,31,Wraps,M_OCR_APF,86.7,90,160,175,185,185,125,137.5,-145,137.5,247.5,265,-275,265,587.5,SBD
1,Joshua Girdler,M,1980-04-22,41,Wraps,M_OCR_APF,95.4,100,235,-242.5,-242.5,235,155,160,-165,160,260,265,-272.5,265,660,SBD
2,Andrew Pajor,M,1998-12-17,23,Wraps,M_OCR_APF,98.4,100,235,247.5,-257.5,247.5,140,-145,-145,140,245,262.5,-267.5,262.5,650,SBD
3,Jacob Lucas #1,M,1988-05-20,33,Wraps,M_OCR_APF,94.9,100,-227.5,242.5,-250,242.5,150,160,-162.5,160,215,-235,-235,215,617.5,SBD
1,Jon Ross Miller,M,1991-12-31,30,Wraps,M_OCR_APF,109.8,110,267.5,-280,-280,267.5,157.5,167.5,-172.5,167.5,310,325,-327.5,325,760,SBD
2,Scottie Alexander,M,1993-05-24,28,Wraps,M_OCR_APF,109.7,110,260,275,290,290,175,-187.5,-187.5,175,257.5,270,282.5,282.5,747.5,SBD
1,Lee Brown #3,M,1990-07-26,31,Raw,M_OR_APF,108.7,110,125,132.5,150,150,110,-117.5,-122.5,110,165,177.5,187.5,187.5,447.5,SBD
1,Shelton Fortenberry,M,1996-10-16,25,Raw,M_OR_APF,128.8,140,250,275,-295,275,170,182.5,190,190,257.5,282.5,295,295,760,SBD
2,Philip McCain,M,1987-08-25,34,Raw,M_SR_APF,121.7,125,180,185,192.5,192.5,115,120,-125,120,220,230,240,240,552.5,SBD
3,Chris Sanders,M,1984-12-21,37,Raw,M_SR_APF,110.3,125,150,160,167.5,167.5,142.5,-157.5,-157.5,142.5,185,-205,-205,185,495,SBD
1,Kegan Hall,M,2002-04-23,19,Wraps,M_TCR_3_APF,65.2,67.5,147.5,-160,160,160,-95,100,102.5,102.5,177.5,195,-200,195,457.5,SBD
