Division,WeightClassKg,Place,Name,Team,BodyweightKg,Best3SquatKg,Best3BenchKg,Best3DeadliftKg,TotalKg,Equipment,Event,Sex
Boys,51.71,1,Cody Henson,Abernathy,48.35,136.08,68.04,163.29,367.41,Single-ply,SBD,M
Boys,51.71,2,Toby Crabb,Slaton,51.62,108.86,70.31,115.67,294.84,Single-ply,SBD,M
Boys,55.79,1,Pablo Mendoza,Sundown,55.07,131.54,86.18,170.1,387.82,Single-ply,SBD,M
Boys,55.79,2,Tay Tay Flowers,Slaton,55.16,149.69,63.5,163.29,376.48,Single-ply,SBD,M
Boys,55.79,3,Brayden Sanders,Sundown,55.7,117.93,61.23,142.88,322.05,Single-ply,SBD,M
Boys,55.79,4,Robert Soliz,Sundown,52.39,120.2,70.31,120.2,310.71,Single-ply,SBD,M
Boys,55.79,DQ,Ramon Zubiate,Denver City,55.52,113.4,,,,Single-ply,SBD,M
Boys,59.87,1,Josh Chavarin,Slaton,58.6,151.95,77.11,188.24,417.3,Single-ply,SBD,M
Boys,59.87,2,Landen Simmons,Slaton,59.78,163.29,90.72,142.88,396.89,Single-ply,SBD,M
Boys,59.87,3,Truman Richerson,Abernathy,59.78,147.42,83.91,149.69,381.02,Single-ply,SBD,M
Boys,59.87,4,Johnathan Vidal,Denver City,57.79,142.88,77.11,156.49,376.48,Single-ply,SBD,M
Boys,59.87,5,Carlos Perez #3,Sundown,56.79,136.08,74.84,161.03,371.95,Single-ply,SBD,M
Boys,59.87,6,Marcus Hernandez #3,Sundown,59.6,136.08,77.11,156.49,369.68,Single-ply,SBD,M
Boys,59.87,7,Mark Reyna,Sundown,59.78,140.61,74.84,145.15,360.61,Single-ply,SBD,M
Boys,59.87,8,Paxtyn Gwin,Tahoka,59.78,117.93,81.65,142.88,342.46,Single-ply,SBD,M
Boys,67.13,1,Cade Conway,Sundown,67.13,163.29,111.13,170.1,444.52,Single-ply,SBD,M
Boys,67.13,2,Grayson Drake,Sundown,65.77,167.83,92.99,174.63,435.45,Single-ply,SBD,M
Boys,67.13,3,Jesus Rivera,Abernathy,65.41,176.9,108.86,142.88,428.64,Single-ply,SBD,M
Boys,67.13,4,Eddy Betencourt,Slaton,65.5,142.88,86.18,185.97,415.04,Single-ply,SBD,M
Boys,67.13,5,Zach Gallarneau,Lubbock Cooper,66.13,145.15,81.65,161.03,387.82,Single-ply,SBD,M
Boys,67.13,6,Case Garrett,Lubbock Roosevelt,66.32,120.2,102.06,165.56,387.82,Single-ply,SBD,M
Boys,67.13,7,Eli Samarron,Whiteface,66.86,140.61,92.99,154.22,387.82,Single-ply,SBD,M
Boys,67.13,8,Pablo Gonzales,Olton,65.5,133.81,86.18,163.29,383.29,Single-ply,SBD,M
Boys,67.13,9,Andrew Gonzales,Floydada,60.51,138.35,86.18,156.49,381.02,Single-ply,SBD,M
Boys,67.13,10,Avel Sinklier,Abernathy,61.78,142.88,83.91,145.15,371.95,Single-ply,SBD,M
Boys,67.13,11,Mark Casias,Lubbock Roosevelt,63.5,136.08,79.38,151.95,367.41,Single-ply,SBD,M
Boys,67.13,12,Joseph George,Tahoka,66.13,106.59,54.43,145.15,306.17,Single-ply,SBD,M
Boys,67.13,13,Thomas Sullivan,Tahoka,62.78,83.91,54.43,124.74,263.08,Single-ply,SBD,M
Boys,67.13,DQ,Ben Flores,Abernathy,65.41,,,,,Single-ply,SBD,M
Boys,67.13,DQ,Cade Cramer,Mertzon Irion County,65.59,,,,,Single-ply,SBD,M
Boys,74.84,1,Blake Hulse,Sundown,73.03,231.33,115.67,231.33,578.33,Single-ply,SBD,M
Boys,74.84,2,Aldo Vasquez,Olton,74.03,213.19,111.13,176.9,501.22,Single-ply,SBD,M
Boys,74.84,3,Alex Carmona,Floydada,73.12,199.58,104.33,190.51,494.42,Single-ply,SBD,M
Boys,74.84,4,Malik Hamilton,Tahoka,70.31,183.7,102.06,204.12,489.88,Single-ply,SBD,M
Boys,74.84,5,Izaih Landa,Post,73.75,190.51,113.4,183.7,487.61,Single-ply,SBD,M
Boys,74.84,6,Isiah Rocha,Slaton,74.75,181.44,97.52,201.85,480.81,Single-ply,SBD,M
Boys,74.84,7,Kevin Garcia,Sundown,73.48,181.44,99.79,183.7,464.93,Single-ply,SBD,M
Boys,74.84,8,Omar Rodriguez,Sundown,73.21,165.56,120.2,174.63,460.4,Single-ply,SBD,M
Boys,74.84,9,George Flores,Abernathy,74.3,149.69,115.67,165.56,430.91,Single-ply,SBD,M
Boys,74.84,10,Diego Hernandez,Sundown,73.21,163.29,99.79,158.76,421.84,Single-ply,SBD,M
Boys,74.84,11,Jaycee Clements,Mertzon Irion County,73.21,147.42,86.18,163.29,396.89,Single-ply,SBD,M
Boys,74.84,12,Loyd Eustace,Lubbock Roosevelt,70.85,154.22,77.11,163.29,394.63,Single-ply,SBD,M
Boys,74.84,13,John Stone,Tahoka,69.04,127.01,79.38,165.56,371.95,Single-ply,SBD,M
Boys,74.84,14,Michael Scoggin,Tahoka,72.21,136.08,70.31,156.49,362.87,Single-ply,SBD,M
Boys,74.84,15,Andrew Suarez,Floydada,70.49,140.61,81.65,136.08,358.34,Single-ply,SBD,M
Boys,74.84,16,Edward Morin,Brownfield,74.66,122.47,77.11,140.61,340.19,Single-ply,SBD,M
Boys,74.84,17,Michael Garza #3,Lubbock Roosevelt,71.94,102.06,77.11,142.88,322.05,Single-ply,SBD,M
Boys,74.84,DQ,Christian Bartlett,Lubbock Roosevelt,74.48,108.86,,,,Single-ply,SBD,M
Boys,74.84,DQ,Uriel Garza,Brownfield,67.95,106.59,61.23,,,Single-ply,SBD,M
Boys,82.1,1,Kingsley Rodriguez,Seagraves,77.29,215.46,115.67,233.6,564.72,Single-ply,SBD,M
Boys,82.1,2,Alexander Herevia,Tahoka,76.2,208.65,136.08,208.65,553.38,Single-ply,SBD,M
Boys,82.1,3,Keanu Villareal,Lockney,81.92,185.97,149.69,188.24,523.9,Single-ply,SBD,M
Boys,82.1,4,Tyler Hairston,Lubbock Cooper,81.56,192.78,108.86,204.12,505.76,Single-ply,SBD,M
Boys,82.1,5,Sergio Guerrero,Olton,79.92,197.31,108.86,181.44,487.61,Single-ply,SBD,M
Boys,82.1,6,Silas Urrurita,Lockney,76.38,181.44,120.2,181.44,483.08,Single-ply,SBD,M
Boys,82.1,7,Lorenzo Garza,Brownfield,82.1,158.76,97.52,181.44,437.72,Single-ply,SBD,M
Boys,82.1,8,John Cortez,Abernathy,77.47,167.83,83.91,183.7,435.45,Single-ply,SBD,M
Boys,82.1,9,Manual Soto,Tahoka,79.38,163.29,81.65,190.51,435.45,Single-ply,SBD,M
Boys,82.1,10,Dylan Quintero,Tahoka,77.02,154.22,79.38,172.37,405.97,Single-ply,SBD,M
Boys,82.1,11,Alex Tew,Tahoka,79.38,147.42,77.11,170.1,394.63,Single-ply,SBD,M
Boys,82.1,12,Jason Trinidad,Whiteface,79.92,129.27,79.38,106.59,315.25,Single-ply,SBD,M
Boys,82.1,13,Nick Caffey,Lubbock Roosevelt,75.84,106.59,70.31,131.54,308.44,Single-ply,SBD,M
Boys,82.1,DQ,Nathaniel Resendez,Tahoka,81.37,,,,,Single-ply,SBD,M
Boys,89.81,1,Nicodemus Ayala,Tahoka,88.54,217.72,136.08,199.58,553.38,Single-ply,SBD,M
Boys,89.81,2,Blake Miller,Mertzon Irion County,88.81,190.51,154.22,195.04,539.77,Single-ply,SBD,M
Boys,89.81,3,Logan Duncan,Lubbock Cooper,88.54,192.78,120.2,206.38,519.36,Single-ply,SBD,M
Boys,89.81,4,Jonathan Golightly,Sundown,86,208.65,120.2,185.97,514.83,Single-ply,SBD,M
Boys,89.81,5,Cole Boren,Post,89.09,215.46,124.74,174.63,514.83,Single-ply,SBD,M
Boys,89.81,6,Logan Pipkin,Lubbock Cooper,82.37,188.24,120.2,197.31,505.76,Single-ply,SBD,M
Boys,89.81,7,Gavin Richardson,Sundown,87.09,185.97,108.86,210.92,505.76,Single-ply,SBD,M
Boys,89.81,8,Diego Azua,Lockney,89.72,181.44,127.01,197.31,505.76,Single-ply,SBD,M
Boys,89.81,9,Gabe Oglesby,Lubbock Cooper,89.54,183.7,92.99,199.58,476.27,Single-ply,SBD,M
Boys,89.81,10,Austin Callaway,Abernathy,89.81,174.63,97.52,199.58,471.74,Single-ply,SBD,M
Boys,89.81,11,Abel Prieto,Denver City,88.54,165.56,122.47,167.83,455.86,Single-ply,SBD,M
Boys,89.81,12,Tj Payne,Slaton,88.36,172.37,83.91,181.44,437.72,Single-ply,SBD,M
Boys,89.81,13,Rj Gatica,Abernathy,84.46,151.95,83.91,163.29,399.16,Single-ply,SBD,M
Boys,89.81,14,Colton McCarty,Tahoka,88.45,142.88,79.38,176.9,399.16,Single-ply,SBD,M
Boys,89.81,15,Ej Melendez,Olton,89.45,113.4,56.7,133.81,303.91,Single-ply,SBD,M
Boys,89.81,DQ,Misael Castaneda,Whiteface,84.91,183.7,108.86,,,Single-ply,SBD,M
Boys,89.81,DQ,Stephen Cortez,Abernathy,87.54,161.03,,,,Single-ply,SBD,M
Boys,99.79,1,Adam Velasco,Denver City,97.34,235.87,163.29,192.78,591.94,Single-ply,SBD,M
Boys,99.79,2,Cameron Bednarz,Lubbock Cooper,94.17,229.06,136.08,215.46,580.6,Single-ply,SBD,M
Boys,99.79,3,JR Paiz,Sundown,97.16,238.14,129.27,197.31,564.72,Single-ply,SBD,M
Boys,99.79,4,Damian Pena,Denver City,95.98,219.99,120.2,219.99,560.19,Single-ply,SBD,M
Boys,99.79,5,Cardell Wickware,Floydada,95.89,195.04,161.03,195.04,551.11,Single-ply,SBD,M
Boys,99.79,6,Andy Castillo,Sundown,94.44,176.9,74.84,170.1,421.84,Single-ply,SBD,M
Boys,99.79,7,Danny Garza,Brownfield,97.52,174.63,79.38,142.88,396.89,Single-ply,SBD,M
Boys,99.79,8,Mason Walker,Tahoka,98.25,147.42,79.38,158.76,385.55,Single-ply,SBD,M
Boys,99.79,9,Devin Rijosas,Floydada,92.8,147.42,88.45,145.15,381.02,Single-ply,SBD,M
Boys,99.79,DQ,Chris Correra,Brownfield,94.8,,,,,Single-ply,SBD,M
Boys,99.79,DQ,Bryson Leaks,Abernathy,96.62,201.85,120.2,,,Single-ply,SBD,M
Boys,109.77,1,Zach Bocanegra,Lubbock Cooper,101.7,272.16,167.83,233.6,673.58,Single-ply,SBD,M
Boys,109.77,2,Gabriel Chavez,Olton,101.7,281.23,145.15,231.33,657.71,Single-ply,SBD,M
Boys,109.77,3,Jeremy L Hernandez,Sundown,101.88,235.87,124.74,222.26,582.87,Single-ply,SBD,M
Boys,109.77,4,Alan Mendoza,Seagraves,102.15,226.8,129.27,215.46,571.53,Single-ply,SBD,M
Boys,109.77,5,JC Pedroza,Olton,104.42,215.46,117.93,213.19,546.58,Single-ply,SBD,M
Boys,109.77,6,Jacob Johnson,Floydada,105.23,199.58,117.93,213.19,530.7,Single-ply,SBD,M
Boys,109.77,DQ,Javier Flowers,Slaton,104.51,145.15,,,,Single-ply,SBD,M
Boys,109.77,DQ,Miguel Lara,Lockney,109.23,240.4,127.01,,,Single-ply,SBD,M
Boys,124.74,1,Andy Casias,Abernathy,112.49,256.28,145.15,226.8,628.23,Single-ply,SBD,M
Boys,124.74,2,Jacob Vasquez #3,Lubbock Cooper,109.86,235.87,138.35,226.8,601.01,Single-ply,SBD,M
Boys,124.74,3,Javier Olvera,Floydada,119.39,208.65,129.27,206.38,544.31,Single-ply,SBD,M
Boys,124.74,4,Isaiah Sanchez,Lubbock Cooper,112.31,215.46,120.2,183.7,519.36,Single-ply,SBD,M
Boys,124.74,5,Jj Garcia,Sundown,110.4,190.51,124.74,199.58,514.83,Single-ply,SBD,M
Boys,124.74,6,Tyler Underwood,Brownfield,115.3,174.63,120.2,172.37,467.2,Single-ply,SBD,M
Boys,124.74,7,Will Mott,Slaton,114.21,149.69,79.38,158.76,387.82,Single-ply,SBD,M
Boys,124.74,8,Ryan Olivan,Tahoka,118.48,147.42,77.11,136.08,360.61,Single-ply,SBD,M
Boys,124.74+,1,Taye Perez,Post,128.82,229.06,127.01,233.6,589.67,Single-ply,SBD,M
Boys,124.74+,2,Cameron Hastings,Sundown,147.51,247.21,142.88,199.58,589.67,Single-ply,SBD,M
Boys,124.74+,3,Chris Jackson #5,Post,125.83,217.72,129.27,208.65,555.65,Single-ply,SBD,M
Boys,124.74+,4,Chase Rodriguez,Lubbock Cooper,145.78,217.72,127.01,199.58,544.31,Single-ply,SBD,M
Boys,124.74+,5,Ayden Visage,Lubbock Cooper,136.26,199.58,108.86,195.04,503.49,Single-ply,SBD,M
Boys,124.74+,6,Jacob Obenhaus,Tahoka,134.44,190.51,72.57,183.7,446.79,Single-ply,SBD,M
Boys,124.74+,DQ,Javen Diaz,Post,139.8,233.6,115.67,,,Single-ply,SBD,M
Boys,,NS,Cris Escalante,Denver City,,,,,,Single-ply,SBD,M
Boys,,NS,Zakary Gragson,Sundown,,,,,,Single-ply,SBD,M
