Division,WeightClassKg,Place,Name,Team,BodyweightKg,Best3SquatKg,Best3BenchKg,Best3DeadliftKg,TotalKg,Equipment,Event,Sex,BirthDate
Boys,51.71,1,Max Wickens,Sealy,50.44,102.06,56.7,83.91,242.67,Single-ply,SBD,M,
Boys,55.79,1,Juan Perez #3,Sealy,55.61,120.2,70.31,142.88,333.39,Single-ply,SBD,M,
Boys,55.79,2,Drayton Mazac,Sealy,53.52,115.67,61.23,140.61,317.51,Single-ply,SBD,M,
Boys,55.79,3,Donavan Ruiz,Palacios,55.61,77.11,56.7,102.06,235.87,Single-ply,SBD,M,
Boys,59.87,1,Weslee Novosad,Sealy,59.06,138.35,72.57,163.29,374.21,Single-ply,SBD,M,
Boys,59.87,2,Geovanni Villeda,Edna,58.97,142.88,72.57,145.15,360.61,Single-ply,SBD,M,
Boys,59.87,3,Anthony Nguyen #3,Palacios,59.24,90.72,61.23,120.2,272.16,Single-ply,SBD,M,
Boys,59.87,4,Jonathan Lopez,Palacios,57.7,90.72,56.7,111.13,258.55,Single-ply,SBD,M,
Boys,59.87,DQ,Dylan Thaxton,Sealy,59.78,154.22,90.72,,,Single-ply,SBD,M,
Boys,67.13,1,Dawson Keen,Coldspring-Oakhurst,60.96,102.06,70.31,138.35,310.71,Single-ply,SBD,M,
Boys,67.13,2,Remy Rogers,Coldspring-Oakhurst,63.59,102.06,56.7,124.74,283.5,Single-ply,SBD,M,
Boys,67.13,3,JoseLuis Cisneros,Palacios,67.13,106.59,58.97,117.93,283.5,Single-ply,SBD,M,
Boys,67.13,DQ,Bradley Garbs,Sealy,61.78,138.35,79.38,,,Single-ply,SBD,M,
Boys,74.84,1,Eddy Brown,Coldspring-Oakhurst,72.12,201.85,124.74,183.7,510.29,Single-ply,SBD,M,
Boys,74.84,2,Jackson Osborne,Sealy,74.84,165.56,106.59,174.63,446.79,Single-ply,SBD,M,
Boys,74.84,3,Kadin Nunez,Bay City,67.49,136.08,79.38,158.76,374.21,Single-ply,SBD,M,
Boys,74.84,4,Dantes Torres,Needville,74.12,106.59,81.65,122.47,310.71,Single-ply,SBD,M,
Boys,74.84,DQ,Juan DeGona,Edna,74.48,136.08,,,,Single-ply,SBD,M,
Boys,74.84,DQ,Alan Vega,Needville,68.67,113.4,,,,Single-ply,SBD,M,
Boys,74.84,DQ,Corey Riley,Sealy,73.48,199.58,115.67,,,Single-ply,SBD,M,
Boys,82.1,1,Stefan Plotini,Edna,81.28,158.76,92.99,174.63,426.38,Single-ply,SBD,M,
Boys,82.1,DQ,Scott Lane,Coldspring-Oakhurst,76.38,138.35,,,,Single-ply,SBD,M,
Boys,82.1,DQ,Joshua Murphy,Needville,82.1,,,,,Single-ply,SBD,M,
Boys,89.81,1,Dalton Bohannon,Edna,87.09,176.9,104.33,199.58,480.81,Single-ply,SBD,M,
Boys,89.81,2,Ethan Hart,Sealy,89.36,176.9,129.27,158.76,464.93,Single-ply,SBD,M,
Boys,89.81,3,Ruben Alameda,Bay City,88.54,167.83,111.13,179.17,458.13,Single-ply,SBD,M,
Boys,89.81,4,Chris Garcia #12,Palacios,86.91,170.1,106.59,147.42,424.11,Single-ply,SBD,M,
Boys,89.81,5,Martin Estudillo,Palacios,89.72,136.08,104.33,151.95,392.36,Single-ply,SBD,M,
Boys,89.81,6,Gabriel Roemer,Palacios,86.45,142.88,70.31,170.1,383.29,Single-ply,SBD,M,
Boys,89.81,7,Herasmo Guerrero,Palacios,88,142.88,92.99,142.88,378.75,Single-ply,SBD,M,
Boys,89.81,8,Marco Hernandez,Needville,89.09,136.08,72.57,151.95,360.61,Single-ply,SBD,M,
Boys,89.81,9,Enrique Ortiz,Needville,82.83,99.79,81.65,124.74,306.17,Single-ply,SBD,M,
Boys,89.81,10,Seith Owen,Bay City,83.64,70.31,43.09,104.33,217.72,Single-ply,SBD,M,
Boys,89.81,DQ,Glenn Ihde,Bay City,89.81,,,,,Single-ply,SBD,M,
Boys,89.81,DQ,Gavin Duke,Palacios,89.81,,,,,Single-ply,SBD,M,
Boys,99.79,1,Caleb Monroe,Coldspring-Oakhurst,98.7,224.53,147.42,190.51,562.45,Single-ply,SBD,M,
Boys,99.79,2,Dreydan Ashford,Edna,98.07,213.19,117.93,219.99,551.11,Single-ply,SBD,M,
Boys,99.79,3,Fernando Cortes,Edna,96.16,215.46,117.93,204.12,537.51,Single-ply,SBD,M,
Boys,99.79,4,Ricky Lewis,Coldspring-Oakhurst,94.71,192.78,104.33,188.24,485.34,Single-ply,SBD,M,
Boys,99.79,5,Hunter Brewster,Needville,90.9,172.37,117.93,170.1,460.4,Single-ply,SBD,M,
Boys,99.79,6,Matthew Torres,Needville,93.62,183.7,106.59,170.1,460.4,Single-ply,SBD,M,
Boys,99.79,7,Jose Arriaga,Sealy,90.99,158.76,99.79,174.63,433.18,Single-ply,SBD,M,
Boys,99.79,8,Marucio Hurtado,Palacios,96.16,104.33,70.31,102.06,276.69,Single-ply,SBD,M,
Boys,99.79,9,Kyler Estrada,Bay City,91.08,92.99,68.04,102.06,263.08,Single-ply,SBD,M,
Boys,99.79,DQ,Joey Brown,Coldspring-Oakhurst,93.44,188.24,117.93,,,Single-ply,SBD,M,
Boys,99.79,DQ,Tyrese Wallace,Port Arthur Memorial,93.89,142.88,129.27,,,Single-ply,SBD,M,
Boys,99.79,DQ,Alvin Hunn,Sealy,99.79,,,,,Single-ply,SBD,M,
Boys,99.79,DQ,Dylan Vu,Palacios,99.79,,,,,Single-ply,SBD,M,
Boys,99.79,DQ,Jhalan Agustine,Port Arthur Memorial,99.79,,,,,Single-ply,SBD,M,
Boys,109.77,1,Donaven Jackson,Port Arthur Memorial,105.69,238.14,142.88,251.74,632.76,Single-ply,SBD,M,
Boys,109.77,2,Yahir Alvarez,Sealy,105.23,201.85,122.47,222.26,546.58,Single-ply,SBD,M,
Boys,109.77,3,Logan MacLennan,Bay City,104.33,179.17,106.59,179.17,464.93,Single-ply,SBD,M,
Boys,109.77,4,Tate Gustavus,Needville,109.23,174.63,99.79,158.76,433.18,Single-ply,SBD,M,
Boys,109.77,5,Andres Bermudez,Bay City,107.41,149.69,86.18,142.88,378.75,Single-ply,SBD,M,
Boys,109.77,DQ,Shawn Snyder,Coldspring-Oakhurst,100.33,,,,,Single-ply,SBD,M,
Boys,124.74,1,Landon Henke,Needville,122.29,281.23,174.63,244.94,700.8,Single-ply,SBD,M,
Boys,124.74,2,Devin Johnson,Edna,110.4,240.4,127.01,188.24,555.65,Single-ply,SBD,M,
Boys,124.74,3,Eric Garza,Edna,113.58,206.38,129.27,174.63,510.29,Single-ply,SBD,M,
Boys,124.74,4,Peyton Gonzales,Edna,110.77,215.46,104.33,188.24,508.02,Single-ply,SBD,M,
Boys,124.74,5,Isaac Allen,Bay City,120.2,201.85,124.74,176.9,503.49,Single-ply,SBD,M,
Boys,124.74,6,Irwin Hernandez,Edna,121.47,174.63,117.93,158.76,451.32,Single-ply,SBD,M,
Boys,124.74,7,Marco Mata,Bay City,117.21,154.22,86.18,151.95,392.36,Single-ply,SBD,M,
Boys,124.74,DQ,Victor Muniz,Needville,113.4,,,,,Single-ply,SBD,M,
Boys,124.74,DQ,Roshawn Calhoun,Port Arthur Memorial,117.93,229.06,,,,Single-ply,SBD,M,
Boys,124.74,DQ,Jordan Thomas #2,Port Arthur Memorial,124.74,,,,,Single-ply,SBD,M,
Boys,139.71,1,Andre Brady,Edna,127.1,249.48,113.4,217.72,580.6,Single-ply,SBD,M,
Boys,139.71,2,Josh Marsh,Port Arthur Memorial,130.63,165.56,115.67,185.97,467.2,Single-ply,SBD,M,
Boys,139.71,3,Ellian Perez,Palacios,130.36,190.51,108.86,165.56,464.93,Single-ply,SBD,M,
Boys,139.71,DQ,Blake Frausto,Bay City,139.71,,,,,Single-ply,SBD,M,
Boys,139.71+,1,Hayden Richardson,Coldspring-Oakhurst,142.7,244.94,154.22,188.24,587.4,Single-ply,SBD,M,
Boys,139.71+,2,Pablo Almeda,Edna,142.97,213.19,113.4,183.7,510.29,Single-ply,SBD,M,
Boys,139.71+,DQ,Blake Boenisch,Needville,160.12,,,,,Single-ply,SBD,M,
