Place,Name,Team,WeightClassKg,Best3BenchKg,TotalKg,Event,Equipment,Sex,Division
1,Ingrid Grill,KSC Frauenau,44,65,65,B,Single-ply,F,Open
2,Marion Friedrich,PSV Schwedt,44,62.5,62.5,B,Single-ply,F,Open
3,Cornelia Düsterbeck,KSK Köthen,44,47.5,47.5,B,Single-ply,F,Open
4,Katja Rödl,SG Chemie Gotha,44,40,40,B,Single-ply,F,Open
1,Doris Illeditsch-Wanner,STHV Lechfeld,48,80,80,B,Single-ply,F,Open
2,Meike Roth,AC Forst,48,80,80,B,Single-ply,F,Open
3,Ulrike Köhler,VfB Friedrichshfn.,48,72.5,72.5,B,Single-ply,F,Open
4,Esther Pusse,KSV Langen,48,55,55,B,Single-ply,F,Open
5,Erika Uhlig,TV Kempten,48,45,45,B,Single-ply,F,Open
1,Gabriela Hirner,KSC I Amberg,52,87.5,87.5,B,Single-ply,F,Open
2,Hilke Richardsen,TSV Busdorf,52,85,85,B,Single-ply,F,Open
3,Kornelia Grothe,KuF Hoyerswerda,52,60,60,B,Single-ply,F,Open
4,Birgit Pfeiffer,SV Friedensweiler,52,57.5,57.5,B,Single-ply,F,Open
1,Petra Stolt,TSV Busdorf,56,82.5,82.5,B,Single-ply,F,Open
2,Vera Ihrig,Fitness Kramsdorf,56,75,75,B,Single-ply,F,Open
3,Monika Schnölzer,Bad Wörishofen,56,75,75,B,Single-ply,F,Open
4,Gabi Gernert,KSC I Amberg,56,70,70,B,Single-ply,F,Open
5,Anke Martin,SC Elite Hannover,56,65,65,B,Single-ply,F,Open
6,Katrin Kciuk,KuF Hoyerswerda,56,62.5,62.5,B,Single-ply,F,Open
7,Dilek Heidemann,TSV Busdorf,56,60,60,B,Single-ply,F,Open
8,Maika Rüdiger,Bad Wörishofen,56,50,50,B,Single-ply,F,Open
1,Claudine Neumannn,VfB Friedrichshfn.,60,102.5,102.5,B,Single-ply,F,Open
2,Ute Villwock,Takezo Berlin,60,90,90,B,Single-ply,F,Open
3,Angelika Barwa,TSV Busdorf,60,82.5,82.5,B,Single-ply,F,Open
4,Bianca Penisson,VfB Fiedrichshfn.,60,80,80,B,Single-ply,F,Open
5,Steffi Lehmann,PSV Schwedt,60,75,75,B,Single-ply,F,Open
6,Martina Helmbrecht,VS Marl-Hüls,60,72.5,72.5,B,Single-ply,F,Open
7,Jeannette Bieder,SV Aue,60,67.5,67.5,B,Single-ply,F,Open
8,Doris Eberhardt,KuF Hoyerswerda,60,67.5,67.5,B,Single-ply,F,Open
1,Beatrix Glück,TV Kempten,67.5,107.5,107.5,B,Single-ply,F,Open
2,Iris Kunkel,AC Siegen,67.5,102.5,102.5,B,Single-ply,F,Open
3,Simone Nauth,KSV Langen,67.5,97.5,97.5,B,Single-ply,F,Open
4,Daniela Sell,AC Marburg 1888,67.5,97.5,97.5,B,Single-ply,F,Open
5,Karin Dethlefsen,TSV Büsdorf,67.5,87.5,87.5,B,Single-ply,F,Open
6,Heike Küster,PSV Schwedt,67.5,70,70,B,Single-ply,F,Open
7,Grit Rausch,PSV Chemnitz,67.5,70,70,B,Single-ply,F,Open
1,Elisabeth Singer,KSC I Amberg,75,130,130,B,Single-ply,F,Open
2,Petra Nothnagel,SC Elite Hannover,75,85,85,B,Single-ply,F,Open
3,Gabriele Bräu,ESV 27 Regensbg.,75,85,85,B,Single-ply,F,Open
4,Janett MitteIstädt,SG Röcken,75,82.5,82.5,B,Single-ply,F,Open
5,Anja Schlief,PSV Schwedt,75,77.5,77.5,B,Single-ply,F,Open
1,Regine Hunsinger,ACS Darmstadt,82.5,105,105,B,Single-ply,F,Open
2,Eva Paulig,PSV Chemnitz,82.5,92.5,92.5,B,Single-ply,F,Open
3,Ingeborg Hagge,TSV Büsdorf,82.5,87.5,87.5,B,Single-ply,F,Open
1,Rita Kistenmacher,AC Rendsburg,90+,110,110,B,Single-ply,F,Open
2,Kerstin Wahl,AC Siegen,90+,90,90,B,Single-ply,F,Open
1,Christian Klein,FCL Rüsselsheim,52,140,140,B,Single-ply,M,Open
2,Maik Tranke,FGV Zahna,52,130,130,B,Single-ply,M,Open
1,Rupert Wick,KSC Frauenau,56,137.5,137.5,B,Single-ply,M,Open
2,Matthias Fröhlich,AC Lauchhammer,56,115,115,B,Single-ply,M,Open
3,Klaus Thomsen,TSV Busdorf,56,87.5,87.5,B,Single-ply,M,Open
1,Andreas Albrecht,100 kg CI. Hasbg.,60,127.5,127.5,B,Single-ply,M,Open
2,Maik Reggentin,KuF Hoyerswerda,60,115,115,B,Single-ply,M,Open
3,Christian Kießling,TSV Katzwang,60,107.5,107.5,B,Single-ply,M,Open
4,Martin Nowald,VfB Friedrichshfn.,60,100,100,B,Single-ply,M,Open
1,Andreas Röhr,TSVTangermünde,67.5,167.5,167.5,B,Single-ply,M,Open
2,Stefan Süß,USV Dresden,67.5,155,155,B,Single-ply,M,Open
3,Wolfgang Bzdock,PSV Chemnitz,67.5,150,150,B,Single-ply,M,Open
4,Frank Heinrich,TSV Stralsund,67.5,150,150,B,Single-ply,M,Open
5,Hartmut Glaue,AC Marburg 1888,67.5,147.5,147.5,B,Single-ply,M,Open
6,Rudolf Gaschka,TSV Büsdorf,67.5,145,145,B,Single-ply,M,Open
7,Klaus Landeck,VS Mari-Hüls,67.5,140,140,B,Single-ply,M,Open
8,Jütgen Dziergwa,KuF Hoyerswerda,67.5,130,130,B,Single-ply,M,Open
9,Gunter Bahn,KSV Bergneustadt,67.5,125,125,B,Single-ply,M,Open
10,Dirk Schumann,SV Ketschendorf,67.5,122.5,122.5,B,Single-ply,M,Open
11,Burkh. Duderstadt,OhrdruverSV,67.5,120,120,B,Single-ply,M,Open
DQ,Klemen Jaschinski,VfB Marl-Hüls,67.5,,,B,Single-ply,M,Open
DQ,Mike Grzibeek,RSV Zillebach,67.5,,,B,Single-ply,M,Open
1,Berndt Roy,SV Lauter,75,187.5,187.5,B,Single-ply,M,Open
2,René Groß,KSC Kassel,75,165,165,B,Single-ply,M,Open
3,Thomas Marhoffer,KSV Geringswalde,75,155,155,B,Single-ply,M,Open
4,Ronny Berndt,AC Lauchhammer,75,150,150,B,Single-ply,M,Open
5,Carsten Gehar,AC Zehdnik,75,142.5,142.5,B,Single-ply,M,Open
6,Mario Harnisch,SG Röcken,75,135,135,B,Single-ply,M,Open
7,Ralf Holze,FAC Sangerhaus.,75,135,135,B,Single-ply,M,Open
8,Uwe Gossow,SG Chemie Gotha,75,130,130,B,Single-ply,M,Open
DQ,Roland Herb,AC Kaufbeuren,75,,,B,Single-ply,M,Open
DQ,Frank Drath,AC Gol. Mengede,75,,,B,Single-ply,M,Open
DQ,Andreas Peuckert,AC Power Burgau,75,,,B,Single-ply,M,Open
1,Helmut Körtge,AC Zehdnik,82.5,185,185,B,Single-ply,M,Open
2,Werner Fakler,AC Kaufbeuren,82.5,180,180,B,Single-ply,M,Open
3,Uwe Bartolome,Ohrdruver SV,82.5,177.5,177.5,B,Single-ply,M,Open
4,Thomas Seite,KuF Hoyerswerda,82.5,175,175,B,Single-ply,M,Open
5,Lothar Pritzl,KSC Frauenau,82.5,170,170,B,Single-ply,M,Open
6,Rüdiger Fehr,GSV E. Baunatal,82.5,167.5,167.5,B,Single-ply,M,Open
7,Wolfgang Baran,KSC Frauenau,82.5,167.5,167.5,B,Single-ply,M,Open
8,Frank Grell,USV Dresden,82.5,176.5,176.5,B,Single-ply,M,Open
9,Bernd Neubert,SV Aue,82.5,165,165,B,Single-ply,M,Open
10,Jens Podhornik,Motor Arnstadt,82.5,162.5,162.5,B,Single-ply,M,Open
11,Andreas Heinz,Motor Arnstadt,82.5,160,160,B,Single-ply,M,Open
12,Peter Leister,KV Oberursel,82.5,150,150,B,Single-ply,M,Open
DQ,Marek Morawski,TSV Busdorf,82.5,,,B,Single-ply,M,Open
DQ,Roger Pohl,PSC Schönau,82.5,,,B,Single-ply,M,Open
DQ,Lorenz Stark,SNW Berlin,82.5,,,B,Single-ply,M,Open
1,Uwe Haase,PSV Chemnitz,90,210,210,B,Single-ply,M,Open
2,Veiko Friedrich,PSC Schönau,90,200,200,B,Single-ply,M,Open
3,Klaus-Dieter Jacob,AC Zehdnik,90,197.5,197.5,B,Single-ply,M,Open
4,Thomas Wagner,AG Marburg 1988,90,190,190,B,Single-ply,M,Open
5,Mario Hochberg,SG Chemie Gotha,90,180,180,B,Single-ply,M,Open
6,Thomas Lausmann,AC Lauchhammer,90,180,180,B,Single-ply,M,Open
7,Bernd Geyer,TSV Stralsund,90,175,175,B,Single-ply,M,Open
8,Dirk Schrauf,SG Chemie Gotha,90,170,170,B,Single-ply,M,Open
9,Michael Krebs,GSV E. Baunatal,90,160,160,B,Single-ply,M,Open
10,Christian Gruber,KSC Puch,90,160,160,B,Single-ply,M,Open
11,Steffen Richter,PSV Chemnitz,90,155,155,B,Single-ply,M,Open
12,Malte Kuhn,AC Weinheim,90,155,155,B,Single-ply,M,Open
DQ,Jens Eckhardt,KuF Ichtershausen,90,,,B,Single-ply,M,Open
DQ,Torsten Ebert,AC Zehdnik,90,,,B,Single-ply,M,Open
DQ,Thomas Walter,FAC Sangerhaus.,90,,,B,Single-ply,M,Open
1,Martin Wudtke,Greifswalder SC,100,227.5,227.5,B,Single-ply,M,Open
2,Sven Raskin,Takezo Berlin,100,222.5,222.5,B,Single-ply,M,Open
3,Klaus Semskij,Bavaria Landshut,100,220,220,B,Single-ply,M,Open
4,Achim Kircher,ACS Darmstadt,100,200,200,B,Single-ply,M,Open
5,Rainer Volkmann,PSV Schwedt,100,200,200,B,Single-ply,M,Open
6,Gerold Netz,TSV Tangermünde,100,197.5,197.5,B,Single-ply,M,Open
7,Rainer Schädel,SG Chemie Gotha,100,185,185,B,Single-ply,M,Open
8,Marius Blechschmidt,SV Lauter,100,185,185,B,Single-ply,M,Open
9,Thomas Stiemerling,AC Altm. Stendal,100,185,185,B,Single-ply,M,Open
10,Steffen Jaeckel,FSV Chemnitz,100,182.5,182.5,B,Single-ply,M,Open
11,Stefano Monella,SC Pforzheim,100,180,180,B,Single-ply,M,Open
12,Danko Lebl,TSV Katzwang,100,167.5,167.5,B,Single-ply,M,Open
1,Marcel Schauer,AC Amberg,110,225,225,B,Single-ply,M,Open
2,Alexander Kwaschny,SV Westerholt,110,210,210,B,Single-ply,M,Open
3,Uwe Mergel,Schönebecker SC,110,207.5,207.5,B,Single-ply,M,Open
4,Marcus Hoen,KV Oberursel,110,202.5,202.5,B,Single-ply,M,Open
5,Mario Jaedtke,FSV Zillebach,110,200,200,B,Single-ply,M,Open
6,Wolfgang Zimmermann,KSC I Amberg,110,195,195,B,Single-ply,M,Open
7,Jens Bräuer,SV Aue,110,185,185,B,Single-ply,M,Open
8,Matthias Wagner,FSV Zillebach,110,175,175,B,Single-ply,M,Open
9,Frank Beyer,SV Aue,110,160,160,B,Single-ply,M,Open
1,Torsten Mainka,AC Lauchhhamm.,125,235,235,B,Single-ply,M,Open
2,Edmund Hirsch,AC Bayreuth,125,220,220,B,Single-ply,M,Open
3,Frank Meichsner,SVS Werdau,125,220,220,B,Single-ply,M,Open
4,Maik Lorbeer,Fitness Kramsdorf,125,212.5,212.5,B,Single-ply,M,Open
5,Lutz Stoppa,AC Lauchhamm.,125,195,195,B,Single-ply,M,Open
6,Roy Meier,SV Aue,125,185,185,B,Single-ply,M,Open
7,Karl-Heinz Christ,KV Oberursel,125,185,185,B,Single-ply,M,Open
8,Wolfgang Steinhäuser,GSV E. Baunatal,125,180,180,B,Single-ply,M,Open
DQ,Johannes Schmitt,PT Schaffhausen,125,,,B,Single-ply,M,Open
1,Werner Selig,KSV Bochum,125+,230,230,B,Single-ply,M,Open
2,Frank Girrulat,Stahl Blankenburg,125+,215,215,B,Single-ply,M,Open
3,Jörgen Lochner,KuF Eilenburg,125+,210,210,B,Single-ply,M,Open
