Name,WeightClassKg,Division,AgeRange,Sex,Best3SquatKg,Best3BenchKg,Best3DeadliftKg,TotalKg,Event,Equipment,Place
H. VanNguyen,52,Open,,M,140,75,137.5,352.5,SBD,Single-ply,1
Andy Rettenmaier,56,Open,,M,160,110,175,445,SBD,Single-ply,1
Mike Duhon,56,Open,,M,125,87.5,160,372.5,SBD,Single-ply,2
Frank Restivo,60,Open,,M,165,117.5,207.5,490,SBD,Single-ply,1
W. Elizama,60,Open,,M,170,107.5,182.5,460,SBD,Single-ply,2
P. Doyle,60,Open,,M,162.5,97.5,180,440,SBD,Single-ply,3
O. Garza,67.5,Open,,M,237.5,145,255,637.5,SBD,Single-ply,1
Todd Hayataka,67.5,Open,,M,220,167.5,205,592.5,SBD,Single-ply,2
Ausby Alexander,67.5,Open,,M,207.5,140,227.5,575,SBD,Single-ply,3
Ralph McCarty,67.5,Open,,M,195,157.5,205,557.5,SBD,Single-ply,4
Dean Lontos,67.5,Open,,M,200,107.5,230,537.5,SBD,Single-ply,5
John Pumphrey,67.5,Open,,M,190,120,205,515,SBD,Single-ply,6
S. Fowler,67.5,Open,,M,165,112.5,195,472.5,SBD,Single-ply,7
Eddie Mooney,75,Open,,M,245,170,280,695,SBD,Single-ply,1
John Tyree,75,Open,,M,252.5,125,272.5,650,SBD,Single-ply,2
Gene Rogers,75,Open,,M,215,122.5,260,597.5,SBD,Single-ply,3
J. Greco,75,Open,,M,215,145,237.5,597.5,SBD,Single-ply,4
B. Green,75,Open,,M,217.5,112.5,237.5,567.5,SBD,Single-ply,5
R. Castaneda,75,Open,,M,177.5,132.5,195,505,SBD,Single-ply,6
L. Pena,75,Open,,M,155,110,197.5,462.5,SBD,Single-ply,7
A. Menchaca,75,Open,,M,,,,,SBD,Single-ply,DQ
Jack Schneebeli,75,Open,,M,,,,,SBD,Single-ply,DQ
Hub Aston,82.5,Open,,M,300,212.5,260,772.5,SBD,Single-ply,1
Bruce van Haselen,82.5,Open,,M,260,202.5,290,752.5,SBD,Single-ply,2
R. D'Ambrogi,82.5,Open,,M,280,155,285,720,SBD,Single-ply,3
O. Menchaca,82.5,Open,,M,277.5,170,260,707.5,SBD,Single-ply,4
J. Hudgins,82.5,Open,,M,252.5,172.5,250,675,SBD,Single-ply,5
Dan Canales,82.5,Open,,M,245,160,245,650,SBD,Single-ply,6
Pat Talley,82.5,Open,,M,227.5,127.5,255,610,SBD,Single-ply,7
K. Stegall,82.5,Open,,M,235,120,250,605,SBD,Single-ply,8
Robert Sommers,82.5,Open,,M,227.5,142.5,230,600,SBD,Single-ply,9
T. Gunn,82.5,Open,,M,,,,,SBD,Single-ply,DQ
John Lamb,82.5,Open,,M,,,,,SBD,Single-ply,DQ
Stump Barnette,82.5,Open,,M,,,,,SBD,Single-ply,DQ
Hub Aston,90,Open,,M,320,217.5,282.5,820,SBD,Single-ply,1
Pat Brown,90,Open,,M,295,170,312.5,777.5,SBD,Single-ply,2
John Roberts #4,90,Open,,M,300,192.5,282.5,775,SBD,Single-ply,3
Steve Lumpee #1,90,Open,,M,272.5,175,312.5,760,SBD,Single-ply,4
Tom Allen,90,Open,,M,275,182.5,270,727.5,SBD,Single-ply,5
G. Kearns,90,Open,,M,287.5,160,275,722.5,SBD,Single-ply,6
J. Allen,90,Open,,M,200,200,242.5,642.5,SBD,Single-ply,7
W. Adams,90,Open,,M,,,,,SBD,Single-ply,DQ
Charlie Perkins,100,Open,,M,322.5,175,297.5,795,SBD,Single-ply,2
D. Bowie,100,Open,,M,282.5,207.5,327.5,817.5,SBD,Single-ply,1
Ken Adcock,100,Open,,M,277.5,207.5,287.5,772.5,SBD,Single-ply,3
J. Burns,100,Open,,M,267.5,202.5,265,735,SBD,Single-ply,4
R. Garza,100,Open,,M,265,162.5,280,707.5,SBD,Single-ply,5
Jesse Salinas #1,100,Open,,M,250,137.5,230,617.5,SBD,Single-ply,6
Hal Adams,100,Open,,M,192.5,150,222.5,565,SBD,Single-ply,7
Dennis Marken,110,Open,,M,332.5,215,325,872.5,SBD,Single-ply,1
Larry Marken,110,Open,,M,340,210,315,865,SBD,Single-ply,2
Tom Bartosh,110,Open,,M,300,205,295,800,SBD,Single-ply,3
John McGrath,110,Open,,M,317.5,170,275,762.5,SBD,Single-ply,4
E. Prado,110,Open,,M,,,,,SBD,Single-ply,DQ
Frank Castaneda,110,Open,,M,317.5,,,,SBD,Single-ply,DQ
John Houser,125,Open,,M,350,195,345,890,SBD,Single-ply,1
Hal Hudson,125,Open,,M,260,182.5,272.5,715,SBD,Single-ply,2
R. Jones,125,Open,,M,247.5,192.5,265,705,SBD,Single-ply,3
Joe Regaldo,125,Open,,M,272.5,,,,SBD,Single-ply,DQ
G. Cipriano,52,Novice,,M,135,60,137.5,332.5,SBD,Single-ply,1
Jack Mashburn,52,Novice,,M,100,47.5,130,277.5,SBD,Single-ply,2
Z. Pellet,52,Novice,,F,62.5,42.5,75,180,SBD,Single-ply,3
D. Jeffreys,52,Novice,,M,,,,,SBD,Single-ply,DQ
Brian McDonald,60,Novice,,M,185,100,190,475,SBD,Single-ply,1
R. Mancha,60,Novice,,M,162.5,107.5,185,455,SBD,Single-ply,2
R. Matt,60,Novice,,M,152.5,102.5,190,445,SBD,Single-ply,3
J. Stewart,60,Novice,,M,,,,,SBD,Single-ply,DQ
Joel Chavez #1,67.5,Novice,,M,200,142.5,205,547.5,SBD,Single-ply,1
Dean Lontos,67.5,Novice,,M,200,107.5,230,537.5,SBD,Single-ply,2
J. Marchio,67.5,Novice,,M,192.5,125,210,527.5,SBD,Single-ply,3
J. Jackson,67.5,Novice,,M,240,27.5,250,517.5,SBD,Single-ply,4
Jay Matlock,67.5,Novice,,M,172.5,157.5,182.5,512.5,SBD,Single-ply,5
Larry Adkins,67.5,Novice,,M,165,140,205,510,SBD,Single-ply,6
M. Ditto,67.5,Novice,,M,172.5,122.5,205,500,SBD,Single-ply,7
S. Fowler,67.5,Novice,,M,165,112.5,195,472.5,SBD,Single-ply,8
D. Butterbrudt,67.5,Novice,,M,167.5,100,182.5,450,SBD,Single-ply,9
Gaddis Capps,67.5,Novice,,M,167.5,107.5,172.5,447.5,SBD,Single-ply,10
M. Wilczopolski,67.5,Novice,,M,137.5,125,167.5,430,SBD,Single-ply,11
Darren Ralstin,67.5,Novice,,M,150,107.5,170,427.5,SBD,Single-ply,12
M. Humphries,67.5,Novice,,M,145,85,177.5,407.5,SBD,Single-ply,13
F. Romero,67.5,Novice,,M,132.5,85,175,392.5,SBD,Single-ply,14
K. Baldwin,67.5,Novice,,M,120,105,152.5,377.5,SBD,Single-ply,15
J. Cunningham,67.5,Novice,,M,130,70,170,370,SBD,Single-ply,16
A. Levrier,67.5,Novice,,M,,,,,SBD,Single-ply,DQ
G. Vastbinder,67.5,Novice,,M,,,,,SBD,Single-ply,DQ
Michael Hancock,75,Novice,,M,237.5,127.5,277.5,642.5,SBD,Single-ply,1
J. Greco,75,Novice,,M,215,145,237.5,597.5,SBD,Single-ply,2
J. Burg,75,Novice,,M,205,137.5,235,577.5,SBD,Single-ply,3
Jim Bourbonnais,75,Novice,,M,185,132.5,242.5,560,SBD,Single-ply,4
R. Johnson,75,Novice,,M,212.5,110,227.5,550,SBD,Single-ply,5
Tim Bruner,75,Novice,,M,185,120,240,545,SBD,Single-ply,6
C. Buzman,75,Novice,,M,192.5,142.5,205,540,SBD,Single-ply,7
D. Sigler,75,Novice,,M,185,137.5,215,537.5,SBD,Single-ply,8
Derry Gardner,75,Novice,,M,207.5,112.5,210,530,SBD,Single-ply,9
J. James,75,Novice,,M,205,100,222.5,527.5,SBD,Single-ply,10
Brad Kiltz,75,Novice,,M,187.5,115,217.5,520,SBD,Single-ply,11
Troy Huddleston,75,Novice,,M,185,137.5,185,507.5,SBD,Single-ply,12
Donny Dyson,75,Novice,,M,182.5,117.5,207.5,507.5,SBD,Single-ply,13
R. Blount,75,Novice,,M,155,112.5,227.5,495,SBD,Single-ply,14
L. Pena,75,Novice,,M,155,110,197.5,462.5,SBD,Single-ply,15
H. Yarbrough,75,Novice,,M,155,100,197.5,452.5,SBD,Single-ply,16
C. Isom,75,Novice,,M,150,95,197.5,442.5,SBD,Single-ply,17
E. Newell,75,Novice,,M,145,80,175,400,SBD,Single-ply,18
F. Gomez,75,Novice,,M,,,,,SBD,Single-ply,DQ
D. Telle,75,Novice,,M,155,,,,SBD,Single-ply,DQ
M. Scholz,75,Novice,,M,152.5,102.5,,,SBD,Single-ply,DQ
Pat Talley,82.5,Novice,,M,227.5,127.5,255,610,SBD,Single-ply,1
K. Stegall,82.5,Novice,,M,235,120,250,605,SBD,Single-ply,2
Leonard Stanfield,82.5,Novice,,M,207.5,115,220,542.5,SBD,Single-ply,3
R. McNally,82.5,Novice,,M,177.5,102.5,205,485,SBD,Single-ply,4
A. O'Neal,82.5,Novice,,M,162.5,67.5,192.5,422.5,SBD,Single-ply,5
R. Villarreal,82.5,Novice,,M,,,,,SBD,Single-ply,DQ
L. Micheletti,82.5,Novice,,M,137.5,,,,SBD,Single-ply,DQ
Steve Lumpee #1,90,Novice,,M,272.5,175,312.5,760,SBD,Single-ply,1
Larry Rapier,90,Novice,,M,267.5,170,272.5,710,SBD,Single-ply,2
R. Kincaid,90,Novice,,M,247.5,157.5,292.5,697.5,SBD,Single-ply,3
Curt Rickert,90,Novice,,M,285,162.5,250,697.5,SBD,Single-ply,4
D. Carr,90,Novice,,M,237.5,162.5,250,650,SBD,Single-ply,5
J. Allen,90,Novice,,M,200,200,242.5,642.5,SBD,Single-ply,6
K. Appel,90,Novice,,M,230,142.5,262.5,635,SBD,Single-ply,7
L. Reed,90,Novice,,M,232.5,110,272.5,615,SBD,Single-ply,8
Chandler George,90,Novice,,M,235,120,250,605,SBD,Single-ply,9
B. Yust,90,Novice,,M,235,150,215,600,SBD,Single-ply,10
John Ruthardt,90,Novice,,M,192.5,127.5,217.5,537.5,SBD,Single-ply,11
Chris Lindblad,90,Novice,,M,192.5,117.5,190,500,SBD,Single-ply,12
Cecil Noble,90,Novice,,M,,,,,SBD,Single-ply,DQ
David LeBoeuf,90,Novice,,M,,,,,SBD,Single-ply,DQ
Ron Petri,100,Novice,,M,247.5,182.5,280,710,SBD,Single-ply,1
F. Hinojosa,100,Novice,,M,227.5,197.5,250,675,SBD,Single-ply,2
Larry Pannell,100,Novice,,M,260,155,250,665,SBD,Single-ply,3
David Talbert,100,Novice,,M,245,155,262.5,662.5,SBD,Single-ply,4
G. Charlton,100,Novice,,M,245,135,280,660,SBD,Single-ply,5
Rich Ard #1,100,Novice,,M,247.5,142.5,260,650,SBD,Single-ply,6
Jim Neeley,100,Novice,,M,240,137.5,260,637.5,SBD,Single-ply,7
Rich Revilla,100,Novice,,M,205,165,250,620,SBD,Single-ply,8
Jesse Salinas #1,100,Novice,,M,250,137.5,230,617.5,SBD,Single-ply,9
Hal Adams,100,Novice,,M,192.5,150,222.5,565,SBD,Single-ply,10
E. Smith,100,Novice,,M,200,165,185,550,SBD,Single-ply,11
D. Messer,100,Novice,,M,142.5,97.5,182.5,422.5,SBD,Single-ply,12
Geo Handyside,110,Novice,,M,145,137.5,250,532.5,SBD,Single-ply,1
J. Zimnoski,110,Novice,,M,,,,,SBD,Single-ply,DQ
Gil Villanueva,110,Novice,,M,,,,,SBD,Single-ply,DQ
R. Jones,125,Novice,,M,247.5,192.5,265,705,SBD,Single-ply,1
T. Langston,125,Novice,,M,227.5,132.5,240,600,SBD,Single-ply,2
Cliff Jolley,125,Novice,,M,147.5,,,,SBD,Single-ply,DQ
R. Grubbs,125+,Novice,,M,232.5,140,250,622.5,SBD,Single-ply,1
J. Husik,125+,Novice,,M,192.5,115,185,492.5,SBD,Single-ply,2
Leslie Ramsey,52,Open,,F,135,72.5,135,342.5,SBD,Single-ply,1
Patty Dent,75,Open,,F,175,90,167.5,432.5,SBD,Single-ply,2
Laurie Greene,52,Open,,F,122.5,57.5,125,305,SBD,Single-ply,3
Patrice Sanders,48,Open,,F,97.5,45,100,242.5,SBD,Single-ply,4
C. Varnau,67.5,Open,,F,110,55,137.5,302.5,SBD,Single-ply,5
Mari Eastman,56,Open,,F,85,45,112.5,242.5,SBD,Single-ply,6
Villanueva,67.5,Open,,F,95,45,125,265,SBD,Single-ply,7
C. Darnell,82.5,Open,,F,110,60,142.5,312.5,SBD,Single-ply,8
Robertson,67.5,Open,,F,87.5,50,107.5,245,SBD,Single-ply,9
Z. Pellet,52,Open,,F,62.5,42.5,75,180,SBD,Single-ply,10
Chandler George,90,Teen,14-19,M,235,120,250,605,SBD,Single-ply,1
Ralph McCarty,67.5,Teen,14-19,M,197.5,155,205,557.5,SBD,Single-ply,2
Dean Lontos,67.5,Teen,14-19,M,200,107.5,230,537.5,SBD,Single-ply,3
W. Elizama,60,Teen,14-19,M,170,107.5,182.5,460,SBD,Single-ply,4
R. Mancha,60,Teen,14-19,M,162.5,107.5,185,455,SBD,Single-ply,5
D. Sigler,75,Teen,14-19,M,185,137.5,215,537.5,SBD,Single-ply,6
S. Fowler,67.5,Teen,14-19,M,165,112.5,195,472.5,SBD,Single-ply,7
B. Clemence,,Teen,14-19,M,187.5,135,212.5,535,SBD,Single-ply,8
Darren Ralstin,67.5,Teen,14-19,M,150,107.5,170,427.5,SBD,Single-ply,9
D. Rodriguez,,Teen,14-19,M,147.5,105,170,422.5,SBD,Single-ply,10
M. Humphries,67.5,Teen,14-19,M,145,85,177.5,407.5,SBD,Single-ply,11
S. Richards,,Teen,14-19,M,157.5,90,197.5,445,SBD,Single-ply,12
J. Cunningham,67.5,Teen,14-19,M,130,70,170,370,SBD,Single-ply,13
Eric Milfeld,,Teen,14-19,M,102.5,65,145,312.5,SBD,Single-ply,14
Hal Hudson,125,Masters,40-999,M,260,182.5,272.5,715,SBD,Single-ply,1
Max Peek #1,,Masters,40-999,M,187.5,112.5,215,515,SBD,Single-ply,2
Jesse Salinas #1,100,Masters,40-999,M,250,137.5,230,617.5,SBD,Single-ply,3
John Billings,,Masters,40-999,M,227.5,130,192.5,550,SBD,Single-ply,4
B. Spillers,,Masters,40-999,M,107.5,85,197.5,390,SBD,Single-ply,5
C. Kuhn,,Masters,40-999,M,142.5,102.5,182.5,427.5,SBD,Single-ply,6
Steve Helton,,Masters,40-999,M,60,,,,SBD,Raw,DQ
