Place,Name,Sex,BirthDate,Age,Equipment,Division,BodyweightKg,WeightClassKg,Squat1Kg,Squat2Kg,Squat3Kg,Best3SquatKg,Bench1Kg,Bench2Kg,Bench3Kg,Best3BenchKg,Deadlift1Kg,Deadlift2Kg,Deadlift3Kg,Best3DeadliftKg,TotalKg,Event
1,Jamie Stubbs,F,1986-11-19,33,Raw,FOpe-Ra,51.3,52,,,,,,,,,130,137.5,145,145,145,D
1,Danny Stoyles,M,1982-11-14,37,Wraps,MOpe-CR,74.4,75,190,210,220,220,100,110,-115,110,220,235,240,240,570,SBD
DQ,Chris Jenkins,M,1980-08-09,39,Wraps,MOpe-CR,89.3,90,220,240,255,255,122.5,132.5,-140,132.5,-260,-260,-260,,,SBD
1,Chris Butler,M,1973-07-28,46,Raw,MM-2-Ra,98.8,100,,,,,100,120,140,140,,,,,140,B
1,Chris Apark,M,1966-05-13,53,Raw,MM-3-Ra,124.9,125,,,,,140,145,150,150,,,,,150,B
1,Andrew Palethorpe,M,1980-11-16,39,Raw,MOpe-Ra,102,110,,,,,100,120,124,124,,,,,124,B
1,Gavin Hughes,M,1980-04-09,39,Raw,MOpe-Ra,123.7,125,,,,,210,220,230,230,,,,,230,B
