Place,Sex,Name,Event,Division,WeightClassKg,Equipment,Team,State,BodyweightKg,Squat1Kg,Squat2Kg,Squat3Kg,Best3SquatKg,Bench1Kg,Bench2Kg,Bench3Kg,Best3BenchKg,Deadlift1Kg,Deadlift2Kg,Deadlift3Kg,Best3DeadliftKg,TotalKg,BirthYear
DQ,M,Mosbeh Elkenany,B,M-M,83,Single-ply,,TX,82.9,,,,,-225,-230,-235,,,,,,,1969
DQ,M,Mosbeh Elkenany,B,M-O,83,Single-ply,,TX,82.9,,,,,-225,-230,-235,,,,,,,1969
1,M,Rodney Mitchell Mayon,B,M-O,105,Single-ply,,TX,104.8,,,,,145,215,227.5,227.5,,,,,227.5,1981
1,M,Ryan Eugene Johnson,B,MR-Jr,74,Raw,,TX,71.2,,,,,115,122.5,127.5,127.5,,,,,127.5,1992
1,M,Joe Vann,B,MR-M,59,Raw,,TX,57.7,,,,,107.5,-110,-110,107.5,,,,,107.5,1975
1,M,Paul Gates,B,MR-M,120,Raw,,TX,111.4,,,,,-147.5,147.5,-155,147.5,,,,,147.5,1961
1,M,Joe Vann,B,MR-O,59,Raw,HMB,TX,57.7,,,,,107.5,-110,-110,107.5,,,,,107.5,1975
1,M,Ryan Eugene Johnson,B,MR-O,74,Raw,HMB,TX,71.2,,,,,115,122.5,127.5,127.5,,,,,127.5,1992
1,M,Steven Hale,B,MR-O,93,Raw,,TX,90.2,,,,,100,105,110,110,,,,,110,1992
1,M,Tolu Opeloye,B,MR-O,105,Raw,,TX,103.4,,,,,165,182.5,-185,182.5,,,,,182.5,1985
1,M,Felix Moreno,B,MR-O,120,Raw,,TX,117,,,,,175,180,190,190,,,,,190,1991
2,M,Paul Gates,B,MR-O,120,Raw,,TX,111.4,,,,,-147.5,147.5,-155,147.5,,,,,147.5,1961
1,M,Jaisyn Mike,B,MR-O,120+,Raw,,TX,139.2,,,,,240,250,257.5,257.5,,,,,257.5,1977
1,F,Monica Sobotka,B,F-M,57,Single-ply,HMB,TX,57,,,,,72.5,-77.5,-77.5,72.5,,,,,72.5,1958
1,F,Angelina Hong,B,FR-Jr,52,Raw,,TX,51.6,,,,,82.5,90.5,100,100,,,,,100,1995
1,F,Angelina Hong,B,FR-O,52,Raw,,TX,51.6,,,,,82.5,90.5,100,100,,,,,100,1995
1,F,Jade Dickens,B,FR-O,84+,Raw,,TX,107.5,,,,,110,117.5,122.5,122.5,,,,,122.5,1974
1,M,Sufyan Fofana,D,M-Jr,83,Single-ply,,TX,82.2,,,,,,,,,250,262.5,275,275,275,1993
1,M,Joe Vann,D,MR-M,59,Raw,,TX,57.7,,,,,,,,,125,135,142.5,142.5,142.5,1975
1,M,Mike Parrott,D,MR-O,93,Raw,,TX,88.2,,,,,,,,,237.5,255,-265,255,255,1985
2,M,Keith Anthony Fisher,D,MR-O,93,Raw,MCG,TX,90.6,,,,,,,,,237.5,247.5,-257.5,247.5,247.5,1988
1,F,Emilia Kobina,D,F-O,63,Single-ply,MCG,TX,62.5,,,,,,,,,165,170,-177.5,170,170,1985
1,F,Maegan Lynn Aherne,D,F-O,72,Single-ply,,TX,71.5,,,,,,,,,132.5,145,-150,145,145,1979
1,F,Wendy Spence,D,FR-O,63,Raw,,TX,59.7,,,,,,,,,122.5,130,137.5,137.5,137.5,1977
1,F,Morgan Emily Mcmahon,D,F-T,57,Single-ply,,TX,56.1,,,,,,,,,113,115,-117.5,115,115,1998
1,M,Gustavo Xavier Maldonado,SBD,M-Jr,74,Single-ply,,TX,74,227.5,240,-250,240,120,-130,130,130,227.5,240,-250,240,610,1993
1,M,Robert Keith Tackett,SBD,M-M,105,Single-ply,,TX,104.5,200,220,-232.5,220,125,137.5,147.5,147.5,205,220,232.5,232.5,600,1957
1,M,Aleil J Riley,SBD,M-O,66,Single-ply,,TX,65.3,175,185,192.5,192.5,105,115,122.5,122.5,190,205,220,220,535,1994
DQ,M,Mark Anthony Crowder,SBD,M-O,93,Single-ply,,TX,83.9,-107.5,-107.5,-107.5,,-105,-105,-105,,-162.5,,,,,1963
1,M,Ahmad M Abdel-Aziz,SBD,M-O,120,Single-ply,,TX,117,215,227.5,235,235,137.5,142.5,-145,142.5,227.5,245,252.5,252.5,630,1993
1,M,Valentin Chapa Jr,SBD,MR-Jr,59,Raw,,TX,57.8,157.5,160,-170,160,110,-115,-115,110,190,197.5,207.5,207.5,477.5,1994
2,M,George Peng,SBD,MR-Jr,59,Raw,,TX,57.7,87.5,95,-102.5,95,52.5,57.5,-62.5,57.5,147.5,160,167.5,167.5,320,1996
1,M,Nayad K Barbery,SBD,MR-Jr,66,Raw,HMB,TX,65.8,132.5,140,-142.5,140,-110,115,117.5,117.5,180,190,197.5,197.5,455,1995
1,M,Ryan Sanchez,SBD,MR-Jr,74,Raw,,TX,73.8,-202.5,210,215,215,112.5,117.5,120,120,227.5,242.5,-247.5,242.5,577.5,1996
2,M,Scott Plomer,SBD,MR-Jr,74,Raw,,TX,70.7,155,165,175,175,112.5,120,-125,120,195,207.5,220,220,515,1994
3,M,Jared Theriault,SBD,MR-Jr,74,Raw,,TX,72.5,165,175,-185,175,115,120,-122.5,120,195,205,-217.5,205,500,1994
4,M,Michael Nguyen,SBD,MR-Jr,74,Raw,,TX,71.8,175,-182.5,182.5,182.5,120,130,-140,130,170,-182.5,-182.5,170,482.5,1984
5,M,Nam Hee Kim,SBD,MR-Jr,74,Raw,,TX,71.3,145,152.5,160,160,80,85,90,90,185,195,-205,195,445,1993
DQ,M,Omar Rahman,SBD,MR-Jr,74,Raw,,TX,73.8,-170,-177.5,-177.5,,-125,-125,,,-210,,,,,1993
1,M,Brice LaMach,SBD,MR-Jr,83,Raw,,TX,80.5,190,205,215,215,120,130,-140,130,225,-250,-250,225,570,1994
2,M,Brandon Morales,SBD,MR-Jr,83,Raw,,TX,82.3,185,195,205,205,105,115,125,125,215,227.5,232.5,232.5,562.5,1995
3,M,Blake Lander,SBD,MR-Jr,83,Raw,,TX,78.4,185,192.5,-205,192.5,112.5,117.5,-120,117.5,225,-237.5,-237.5,225,535,1992
1,M,Edwin McQuiston,SBD,MR-Jr,93,Raw,,TX,92.5,215,230,232.5,232.5,147.5,-155,155,155,265,285,-292.5,285,672.5,1993
2,M,Abram Guerra,SBD,MR-Jr,93,Raw,,TX,92.9,205,,,205,160,,,160,227.5,250,,250,615,1995
3,M,Travis Nguyen,SBD,MR-Jr,93,Raw,HMB,TX,87.9,195,205,212.5,212.5,100,105,110,110,222.5,237.5,250,250,572.5,1994
4,M,Michael Martin Molina,SBD,MR-Jr,93,Raw,,TX,91.9,155,165,175,175,107.5,-112.5,112.5,112.5,-185,185,195,195,482.5,1993
1,M,Danny D Dominguez,SBD,MR-Jr,105,Raw,,TX,102.8,185,200,205,205,150,160,-165,160,235,242.5,250,250,615,1994
1,M,Armand Narvaez,SBD,MR-Jr,120,Raw,,TX,118.4,217.5,227.5,235,235,170,-175,-175,170,265,272.5,277.5,277.5,682.5,1994
2,M,Jeremy Dewayne Morrison,SBD,MR-Jr,120,Raw,,TX,113.4,175,-182.5,-185,175,112.5,-122.5,-122.5,112.5,-225,225,-235,225,512.5,1995
1,M,Timmy Meza,SBD,MR-Jr,120+,Raw,,TX,144.4,255,270,-287.5,270,155,162.5,170,170,227.5,240,250,250,690,1992
1,M,Joe Vann,SBD,MR-M,59,Raw,,TX,57.7,95,97.5,100,100,107.5,-110,-110,107.5,125,135,142.5,142.5,350,1975
1,M,James Plomer,SBD,MR-M,93,Raw,,TX,91.2,142.5,155,170,170,105,115,125,125,180,190,202.5,202.5,497.5,1962
1,M,John Hazel,SBD,MR-M,105,Raw,HMB,TX,102.6,222.5,-242.5,242.5,242.5,122.5,130,-137.5,130,222.5,235,245,245,617.5,1970
2,M,Michael Porter #1,SBD,MR-M,105,Raw,,TX,103.8,152.5,165,175,175,152.5,165,-175,165,152.5,175,180,180,520,
3,M,Alan Jay Stang,SBD,MR-M,105,Raw,,TX,100.1,140,162.5,167.5,167.5,-90,95,102.5,102.5,182.5,200,-212.5,200,470,1976
1,M,Sean Haddad,SBD,MR-O,59,Raw,,TX,58.7,87.5,112.5,-120,112.5,87.5,92.5,-95,92.5,145,155,-165,155,360,1990
1,M,Tyler Marcel,SBD,MR-O,66,Raw,,TX,66,-165,165,-175,165,125,137.5,-142.5,137.5,215,222.5,230,230,532.5,1996
2,M,Nayad K Barbery,SBD,MR-O,66,Raw,,TX,65.8,132.5,140,-142.5,140,-110,115,117.5,117.5,180,190,197.5,197.5,455,1995
1,M,Anthony Dang,SBD,MR-O,74,Raw,,TX,72.9,175,192.5,-202.5,192.5,115,120,-125,120,210,227.5,235,235,547.5,1989
2,M,Gavin R Webster,SBD,MR-O,74,Raw,,TX,67.7,155,170,182.5,182.5,112.5,125,132.5,132.5,205,215,227.5,227.5,542.5,1999
3,M,John Dela Cruz,SBD,MR-O,74,Raw,,TX,73.3,187.5,-197.5,-200,187.5,97.5,107.5,-112.5,107.5,192.5,200,207.5,207.5,502.5,1989
4,M,Jared Theriault,SBD,MR-O,74,Raw,,TX,72.4,165,175,-185,175,115,120,-122.5,120,195,205,-217.5,205,500,1994
5,M,Jose Becerra,SBD,MR-O,74,Raw,,TX,73.9,157.5,165,172.5,172.5,97.5,105,112.5,112.5,190,200,-205,200,485,1990
1,M,Nicholas Gutierrez,SBD,MR-O,83,Raw,,TX,83,217.5,242.5,265,265,135,145,-150,145,217.5,240,260,260,670,1982
2,M,Colton Robert Heckart,SBD,MR-O,83,Raw,,TX,81.4,192.5,197.5,205,205,142.5,150,-155,150,252.5,265,270,270,625,1986
3,M,Tim Lamando,SBD,MR-O,83,Raw,,TX,80.8,202.5,207.5,212.5,212.5,127.5,132.5,137.5,137.5,247.5,262.5,267.5,267.5,617.5,1979
4,M,Issac Ariel Vela,SBD,MR-O,83,Raw,,TX,82.4,215,-227.5,227.5,227.5,125,137.5,-140,137.5,-215,215,-227.5,215,580,1996
5,M,Matt Palmieri,SBD,MR-O,83,Raw,Heavy Metal Gym/Bell Power Systems,TX,80,182.5,192.5,200,200,127.5,135,140,140,-215,215,227.5,227.5,567.5,1986
6,M,Elias Sanchez,SBD,MR-O,83,Raw,,TX,82.2,187.5,190,192.5,192.5,117.5,120,122.5,122.5,230,235,-240,235,550,1989
7,M,Richard Hernandez,SBD,MR-O,83,Raw,,TX,78.8,172.5,185,192.5,192.5,120,127.5,130,130,172.5,190,202.5,202.5,525,1992
8,M,Michael Randall Luther,SBD,MR-O,83,Raw,,TX,81.8,152.5,-167.5,-167.5,152.5,100,-105,-107.5,100,175,185,-195,185,437.5,1999
9,M,Bryce Edmondson,SBD,MR-O,83,Raw,,TX,79.6,155,165,172.5,172.5,87.5,-95,-95,87.5,147.5,157.5,165,165,425,1991
10,M,Kyle J Walker,SBD,MR-O,83,Raw,,TX,79.6,117.5,120,-130,120,105,-115,-115,105,160,165,-177.5,165,390,1982
11,M,Dustin Bassett,SBD,MR-O,83,Raw,,TX,79.7,112.5,117.5,120,120,77.5,80,82.5,82.5,140,147.5,157.5,157.5,360,1988
1,M,Derrington Wright,SBD,MR-O,93,Raw,,TX,91.6,250,267.5,272.5,272.5,180,190,195,195,292.5,310,322.5,322.5,790,1992
2,M,Edwin McQuiston,SBD,MR-O,93,Raw,,TX,92.5,215,230,232.5,232.5,147.5,-155,155,155,265,285,-292.5,285,672.5,1993
3,M,Mike Parrott,SBD,MR-O,93,Raw,,TX,88.2,232.5,242.5,247.5,247.5,142.5,147.5,-155,147.5,237.5,255,-265,255,650,1985
4,M,Aaron Gauntt,SBD,MR-O,93,Raw,,TX,92.8,215,-225,,215,132.5,-140,140,140,220,240,255,255,610,1989
5,M,Ilian Angel Rojas,SBD,MR-O,93,Raw,,TX,89.8,205,-227.5,-227.5,205,-155,-155,155,155,205,215,227.5,227.5,587.5,1989
6,M,Keith Anthony Fisher,SBD,MR-O,93,Raw,,TX,90.6,187.5,192.5,195,195,142.5,-150,-150,142.5,237.5,247.5,-257.5,247.5,585,1988
7,M,Michael Benoit,SBD,MR-O,93,Raw,,TX,84.6,150,160,177.5,177.5,-110,110,125,125,182.5,197.5,207.5,207.5,510,1988
8,M,James Dinardo,SBD,MR-O,93,Raw,,TX,89,147.5,160,172.5,172.5,110,117.5,-120,117.5,185,192.5,-202.5,192.5,482.5,1987
9,M,Steven Hale,SBD,MR-O,93,Raw,HMB,TX,90.2,147.5,152.5,157.5,157.5,100,105,110,110,185,195,202.5,202.5,470,1992
10,M,Evan Clayson,SBD,MR-O,93,Raw,,TX,91.1,-140,140,150,150,-92.5,92.5,97.5,97.5,150,162.5,-182.5,162.5,410,1987
DQ,M,Randall Heinrichs,SBD,MR-O,93,Raw,,TX,84.4,115,125,132.5,132.5,-110,-117.5,-117.5,,142.5,152.5,162.5,162.5,,1985
DD,M,Ogden J Myklebust III,SBD,MR-O,105,Raw,,TX,103,-277.5,-292.5,-307.5,,-202.5,-207.5,-212.5,,-330,-347.5,-363,,,1986
1,M,Nathan Westbrook,SBD,MR-O,105,Raw,,TX,105,265,277.5,285,285,172.5,182.5,187.5,187.5,275,292.5,302.5,302.5,775,1992
2,M,Joe Nathan Ornelas,SBD,MR-O,105,Raw,,TX,102.7,237.5,255,-272.5,255,157.5,-170,170,170,252.5,270,275,275,700,1997
3,M,Cole Watkins,SBD,MR-O,105,Raw,,TX,104.6,197.5,-220,232.5,232.5,167.5,177.5,-185,177.5,262.5,275,-285,275,685,1987
4,M,Justin A. Garcia,SBD,MR-O,105,Raw,,TX,100.4,237.5,260,272.5,272.5,147.5,155,-170,155,215,230,245,245,672.5,1992
5,M,Rene Maldonado,SBD,MR-O,105,Raw,HMB,TX,103,210,-220,230,230,170,177.5,-185,177.5,232.5,245,252.5,252.5,660,1978
6,M,Tolu Opeloye,SBD,MR-O,105,Raw,,TX,103.4,182.5,-212.5,-227.5,182.5,165,182.5,-185,182.5,182.5,222.5,230,230,595,1985
7,M,Che Nchukwi,SBD,MR-O,105,Raw,,TX,97.9,180,185,190,190,125,132.5,137.5,137.5,252.5,262.5,-272.5,262.5,590,1990
8,M,Rolando Gomez,SBD,MR-O,105,Raw,HMB,TX,101.4,185,195,-205,195,142.5,150,155,155,230,237.5,240,240,590,1992
10,M,Reid Reid Elder,SBD,MR-O,105,Raw,,TX,101.4,177.5,-195,197.5,197.5,132.5,140,145,145,212.5,225,237.5,237.5,580,1993
11,M,Bryant Lewey,SBD,MR-O,105,Raw,,TX,102.2,180,190,200,200,140,147.5,-155,147.5,195,207.5,-215,207.5,555,1989
12,M,Stan Dziobiak,SBD,MR-O,105,Raw,,TX,104,155,165,172.5,172.5,130,140,-147.5,140,200,215,227.5,227.5,540,1979
13,M,Joseph Morisette,SBD,MR-O,105,Raw,,TX,93.5,160,-167.5,-167.5,160,122.5,-127.5,-127.5,122.5,185,-195,197.5,197.5,480,1990
14,M,Bob Billingsley,SBD,MR-O,105,Raw,,TX,96.8,100,-107.5,112.5,112.5,-82.5,82.5,-87.5,82.5,135,147.5,-157.5,147.5,342.5,1983
1,M,Felix Moreno,SBD,MR-O,120,Raw,,TX,117,235,252.5,-260,252.5,175,180,190,190,240,262.5,-275,262.5,705,1991
2,M,Joseph David Caldwell,SBD,MR-O,120,Raw,,TX,114,217.5,227.5,-235,227.5,152.5,160,-162.5,160,260,272.5,277.5,277.5,665,1989
3,M,John M Schmitten,SBD,MR-O,120,Raw,,TX,112.2,152.5,162.5,170,170,-122.5,122.5,130,130,160,172.5,185,185,485,1987
4,M,Zachary McLemore,SBD,MR-O,120,Raw,,TX,118.6,-120,-120,120,120,97.5,105,-107.5,105,147.5,160,-170,160,385,1984
1,M,Jaisyn Mike,SBD,MR-O,120+,Raw,,TX,139.2,267.5,307.5,315,315,240,250,257.5,257.5,317.5,335,350,350,922.5,1977
2,M,Timmy Meza,SBD,MR-O,120+,Raw,,TX,144.8,255,270,-287.5,270,155,162.5,170,170,227.5,240,250,250,690,1992
3,M,William Dixon,SBD,MR-O,120+,Raw,MCG,TX,127.6,225,237.5,250,250,135,-145,150,150,242.5,267.5,282.5,282.5,682.5,1982
1,M,Tyler Marcel,SBD,MR-T,66,Raw,,TX,66,-165,165,-175,165,125,137.5,-142.5,137.5,215,222.5,230,230,532.5,1996
1,M,Gavin R Webster,SBD,MR-T,74,Raw,,TX,67.7,155,170,182.5,182.5,112.5,125,132.5,132.5,205,215,227.5,227.5,542.5,1999
2,M,Kenneth Bounds,SBD,MR-T,74,Raw,,TX,66.7,177.5,182.5,-195,182.5,102.5,115,-125,115,142.5,,,142.5,440,1999
1,M,Issac Ariel Vela,SBD,MR-T,83,Raw,,TX,82.4,215,-227.5,227.5,227.5,125,137.5,-140,137.5,-215,215,-227.5,215,580,1996
2,M,Marcus Ortega,SBD,MR-T,83,Raw,,TX,76.4,187.5,197.5,-207.5,197.5,92.5,97.5,-100,97.5,190,205,210,210,505,1999
3,M,Luis Perales,SBD,MR-T,83,Raw,,TX,80,150,157.5,165,165,110,117.5,120,120,190,200,207.5,207.5,492.5,1999
4,M,Michael Randall Luther,SBD,MR-T,83,Raw,,TX,81.8,152.5,-167.5,-167.5,152.5,100,-105,-107.5,100,175,185,-195,185,437.5,1999
1,M,Joe Nathan Ornelas,SBD,MR-T,105,Raw,,TX,102.7,237.5,255,-272.5,255,157.5,-170,170,170,252.5,270,275,275,700,1997
DQ,M,Michael T Hardy,SBD,MR-T,105,Raw,,TX,97.2,-217.5,-227.5,-227.5,,-145,-145,-145,,,,,,,1998
1,M,Razi X Johnson,SBD,MR-Y,44,Raw,,TX,42.5,30,35,40,40,25,-27.5,27.5,27.5,-55,55,62.5,62.5,130,2004
DQ,M,Giant Carlo Fumero,SBD,MR-Y,59,Raw,,TX,55.7,-102.5,-102.5,-102.5,,-62.5,-62.5,-62.5,,-105,-105,-105,,,2002
1,M,Jake Ray Holmes,SBD,MR-Y,93,Raw,,TX,89.5,85,102.5,110,110,77.5,82.5,-92.5,82.5,150,-155,-155,150,342.5,2002
1,M,Matt Mark Longoria,SBD,M-T,59,Single-ply,,TX,56.5,145,152.5,160,160,102.5,115,125,125,145,157.5,170,170,455,2000
DQ,M,Edgar R Benegas,SBD,M-T,59,Single-ply,,TX,58.3,-160,-160,-160,,-75,75,-87.5,75,197.5,-207.5,-215,197.5,,1999
1,M,Jared Holmes #2,SBD,M-T,74,Single-ply,,TX,67.9,152.5,162.5,167.5,167.5,85,97.5,102.5,102.5,182.5,195,205,205,475,1998
2,M,Brady Adair,SBD,M-T,74,Single-ply,,TX,69.7,-102.5,117.5,125,125,67.5,-70,70,70,155,-162.5,-162.5,155,350,2000
1,M,Mitchell Trevor Rees,SBD,M-T,83,Single-ply,,TX,80.6,217.5,227.5,-240,227.5,120,-127.5,-127.5,120,207.5,217.5,-222.5,217.5,565,1999
1,M,Tristan Barbare,SBD,M-T,105,Single-ply,,TX,94.4,182.5,192.5,200,200,107.5,117.5,-127.5,117.5,180,192.5,-205,192.5,510,1999
DQ,M,Hunter I Bohanan,SBD,M-T,120,Single-ply,,TX,113.9,-205,-230,-240,,-137.5,-137.5,-137.5,,-170,,,,,2000
DQ,F,Paula Collins,SBD,F-M,72,Single-ply,,TX,69.7,-145,-145,-145,,82.5,87.5,-92.5,87.5,145,-160,-160,145,,1956
1,F,Emilia Kobina,SBD,F-O,63,Single-ply,MCG,TX,62.5,127.5,132.5,135,135,62.5,67.5,-70,67.5,165,170,-177.5,170,372.5,1985
2,F,Heather Dawson Burman,SBD,F-O,63,Single-ply,MCG,TX,60.8,107.5,115,-122.5,115,55,60,-62.5,60,117.5,130,-137.5,130,305,1979
1,F,Maegan Lynn Aherne,SBD,F-O,72,Single-ply,MCG,TX,71.5,-105,115,-120,115,47.5,50,52.5,52.5,132.5,145,-150,145,312.5,1979
1,F,Jill Cynthia Elenbaas,SBD,F-O,84,Single-ply,,TX,80.5,-97.5,97.5,-105,97.5,42.5,50,-52.5,50,132.5,142.5,-147.5,142.5,290,1979
1,F,Tiffany Nguyen,SBD,FR-Jr,47,Raw,,TX,45.9,87.5,95,-102.5,95,47.5,52.5,55,55,105,115,120,120,270,1994
1,F,Sheila Zare,SBD,FR-Jr,63,Raw,,TX,61.8,105,112.5,117.5,117.5,70,75,-80,75,145,160,-175,160,352.5,1994
2,F,Nelly Mercado,SBD,FR-Jr,63,Raw,,TX,62.5,107.5,112.5,-117.5,112.5,55,60,-62.5,60,130,137.5,-142.5,137.5,310,1994
1,F,Shawnee Sky Jones,SBD,FR-Jr,72,Raw,,TX,70.3,-145,145,-155,145,82.5,87.5,-92.5,87.5,150,-157.5,-157.5,150,382.5,1994
2,F,Rozalynn Galindo,SBD,FR-Jr,72,Raw,,TX,69.8,135,-142.5,-142.5,135,60,65,70,70,110,122.5,-132.5,122.5,327.5,1993
3,F,Catherine Marie Robertson,SBD,FR-Jr,72,Raw,HMB,TX,69.5,100,107.5,115,115,55,60,-67.5,60,125,137.5,-142.5,137.5,312.5,1995
4,F,Tamara Waters,SBD,FR-Jr,72,Raw,,NC,71,102.5,117.5,122.5,122.5,60,65,-70,65,105,120,-142.5,120,307.5,1993
5,F,Genesis Frazar,SBD,FR-Jr,72,Raw,,TX,71.6,115,-120,-120,115,55,-60,-60,55,117.5,122.5,130,130,300,1995
1,F,Jennifer Kroken,SBD,FR-M,72,Raw,HMB,TX,71.8,117.5,125,130,130,67.5,72.5,-77.5,72.5,127.5,137.5,145,145,347.5,1974
2,F,Mary Wheeler,SBD,FR-M,72,Raw,,TX,70.7,90,97.5,-102.5,97.5,65,-70,-70,65,112.5,117.5,120,120,282.5,1967
1,F,Tanya Bradley,SBD,FR-M,84,Raw,,TX,81.5,107.5,117.5,-125,117.5,75,-85,-87.5,75,125,142.5,150,150,342.5,1970
1,F,Diana Bearden,SBD,FR-M,84+,Raw,HMB,TX,112.6,82.5,-95,-95,82.5,32.5,35,-40,35,85,102.5,112.5,112.5,230,1973
1,F,Meghali Chopra,SBD,FR-O,57,Raw,,TX,56.4,82.5,90,-95,90,55,60,-65,60,122.5,130,-137.5,130,280,1989
2,F,Mayra A Solorzano,SBD,FR-O,57,Raw,,TX,56.5,100,105,-112.5,105,-55,57.5,-62.5,57.5,110,117.5,-122.5,117.5,280,1991
1,F,Jade Coleman,SBD,FR-O,63,Raw,,TX,61.6,125,-132.5,132.5,132.5,75,80,-85,80,135,145,152.5,152.5,365,1981
2,F,Jenna Richardson,SBD,FR-O,63,Raw,,TX,61.9,102.5,107.5,112.5,112.5,62.5,67.5,70,70,130,142.5,-150,142.5,325,1990
3,F,Agustina Arena,SBD,FR-O,63,Raw,,TX,61.1,100,105,107.5,107.5,55,-57.5,-57.5,55,122.5,130,140,140,302.5,1992
4,F,Christine A Crumbley,SBD,FR-O,63,Raw,,TX,61.9,95,-102.5,-102.5,95,60,62.5,-67.5,62.5,110,-117.5,117.5,117.5,275,1986
1,F,Shawnee Sky Jones,SBD,FR-O,72,Raw,,TX,70.3,-145,145,-155,145,82.5,87.5,-92.5,87.5,150,-157.5,-157.5,150,382.5,1994
2,F,Jennifer Kroken,SBD,FR-O,72,Raw,,TX,71.8,117.5,125,130,130,67.5,72.5,-77.5,72.5,127.5,137.5,145,145,347.5,1974
3,F,Celeste Charles,SBD,FR-O,72,Raw,,TX,71.1,102.5,110,122.5,122.5,50,57.5,-62.5,57.5,130,147.5,160,160,340,1990
4,F,Emily Rose Garrett,SBD,FR-O,72,Raw,,TX,67.7,110,115,120,120,62.5,65,-70,65,120,130,-140,130,315,1987
5,F,Genesis Frazar,SBD,FR-O,72,Raw,,TX,71.6,115,-120,-120,115,55,-60,-60,55,117.5,122.5,130,130,300,1995
6,F,Maria Calderas,SBD,FR-O,72,Raw,,TX,65.4,90,105,-115,105,35,-45,52.5,52.5,112.5,122.5,130,130,287.5,1982
7,F,Meghan Cantu,SBD,FR-O,72,Raw,,TX,66.1,95,105,-110,105,62.5,67.5,72.5,72.5,102.5,107.5,110,110,287.5,1981
8,F,Aysia Howell,SBD,FR-O,72,Raw,,TX,67.6,80,85,90,90,45,50,52.5,52.5,102.5,115,120,120,262.5,1989
9,F,Bobbi Wagner,SBD,FR-O,72,Raw,,TX,65.1,60,67.5,75,75,47.5,50,52.5,52.5,-92.5,92.5,107.5,107.5,235,1980
1,F,Kayla Cueva,SBD,FR-O,84,Raw,,TX,81.4,130,137.5,145,145,75,77.5,80,80,152.5,162.5,175,175,400,1992
2,F,Marilyn Elder,SBD,FR-O,84,Raw,,TX,79.5,117,-122.5,-130,117,70,-80,-80,70,135,152.5,160,160,347,1987
3,F,Kacie Easley,SBD,FR-O,84,Raw,,TX,73.4,122.5,130,137.5,137.5,62.5,-67.5,-67.5,62.5,127,137.5,145,145,345,1990
4,F,Tanya Bradley,SBD,FR-O,84,Raw,,TX,81.5,107.5,117.5,-125,117.5,75,-85,-87.5,75,125,142.5,150,150,342.5,1970
5,F,Kristy Alexander,SBD,FR-O,84,Raw,,TX,82.9,127.5,-137.5,-142.5,127.5,54,-60,-60,54,-140,155,-167.5,155,336.5,1987
6,F,Laryn Toups,SBD,FR-O,84,Raw,,TX,75.6,110,115,120,120,57.5,-60,60,60,125,132.5,-137.5,132.5,312.5,1988
7,F,Abbe N Ball,SBD,FR-O,84,Raw,,TX,77.2,100,105,112.5,112.5,55,-57.5,57.5,57.5,127.5,135,140,140,310,1983
8,F,Mikayla Hines,SBD,FR-O,84,Raw,HMB,TX,81,70,75,80,80,40,42.5,47.5,47.5,87.5,97.5,107.5,107.5,235,1992
1,F,Carmela Montgomery,SBD,FR-O,84+,Raw,,TX,99.2,117.5,-130,137.5,137.5,82.5,97.5,102.5,102.5,147.5,165,-182.5,165,405,1984
2,F,Nicki Botello,SBD,FR-O,84+,Raw,,TX,113.1,-125,125,137.5,137.5,-72.5,75,-82.5,75,122.5,132.5,140,140,352.5,1987
3,F,Taylor Bland,SBD,FR-O,84+,Raw,,TX,93.3,132.5,-140,-142.5,132.5,70,-75,-77.5,70,137.5,140,145,145,347.5,1996
4,F,Jessena Luna,SBD,FR-O,84+,Raw,,TX,100.3,127.5,135,-140,135,60,65,-67.5,65,117.5,122.5,-130,122.5,322.5,1997
5,F,Elizabeth McLemore,SBD,FR-O,84+,Raw,,TX,100.8,70,77.5,85,85,45,50,-52.5,50,102.5,112.5,120,120,255,1985
1,F,Abigail Hernandez,SBD,FR-T,57,Raw,,TX,56,67.5,72.5,75,75,42.5,-47.5,-47.5,42.5,105,112.5,-122.5,112.5,230,1999
2,F,Ashlee Jordyn Hernandez,SBD,FR-T,57,Raw,,TX,52.3,85,-90,-90,85,40,42.5,-47.5,42.5,90,95,100,100,227.5,2000
1,F,Asha Johnson,SBD,FR-T,72,Raw,,TX,71,70,77.5,90,90,42.5,47.5,52.5,52.5,85,102.5,-117.5,102.5,245,1997
1,F,Victoria Reyna,SBD,FR-T,84,Raw,,TX,83.3,102.5,115,122.5,122.5,52.5,57.5,-65,57.5,127.5,137.5,145,145,325,1996
2,F,Kailey Hobson,SBD,FR-T,84,Raw,,TX,83.3,85,95,100,100,42.5,-47.5,47.5,47.5,105,112.5,120,120,267.5,2000
3,F,Amy Wrubel,SBD,FR-T,84,Raw,,TX,82.4,85,90,-97.5,90,50,55,-60,55,100,105,-110,105,250,2001
1,F,Taylor Bland,SBD,FR-T,84+,Raw,,TX,93.3,132.5,-140,-142.5,132.5,70,-75,-77.5,70,137.5,140,145,145,347.5,1996
2,F,Jessena Luna,SBD,FR-T,84+,Raw,,TX,100.3,127.5,135,-140,135,60,65,-67.5,65,117.5,122.5,-130,122.5,322.5,1997
1,F,Elizabeth Perales,SBD,FR-Y,57,Raw,,TX,56.2,-50,50,-55,50,25,27.5,-37.5,27.5,52.5,57.5,60,60,137.5,2005
1,F,Morgan Emily Mcmahon,SBD,F-T,57,Single-ply,,TX,56.1,-110,110,112.5,112.5,45,47.5,50,50,113,115,-117.5,115,277.5,1998
1,M,Kin Wu,BD,MR-Jr,66,Raw,,TX,64.2,,,,,75,85,-90,85,175,-185,187.5,187.5,272.5,
1,M,Bohao Cheng,BD,MR-Jr,105,Raw,,TX,101.4,,,,,145,152.5,155,155,265,277.5,-280,277.5,432.5,1994
1,M,Joe Vann,BD,MR-M,59,Raw,,TX,57.7,,,,,107.5,-110,-110,107.5,125,135,142.5,142.5,250,1975
1,M,Kevin Lee Kentner,BD,MR-M,120,Raw,,TX,119.2,,,,,92.5,100,102.5,102.5,112.5,135,-140,135,237.5,1965
1,M,Mike Parrott,BD,MR-O,93,Raw,,TX,88.2,,,,,142.5,147.5,-155,147.5,237.5,255,-265,255,402.5,1985
2,M,Keith Anthony Fisher,BD,MR-O,93,Raw,,TX,90.6,,,,,142.5,-150,-150,142.5,237.5,247.5,-257.5,247.5,390,1988
1,M,Justin A. Garcia,BD,MR-O,105,Raw,,TX,100.4,,,,,147.5,155,-170,155,215,230,245,245,400,1992
2,M,John Hazel,BD,MR-O,105,Raw,,TX,102.6,,,,,122.5,130,-137.5,130,222.5,235,245,245,375,1970
3,M,Bryant Lewey,BD,MR-O,105,Raw,,TX,102.2,,,,,140,147.5,-155,147.5,195,207.5,-215,207.5,355,1989
1,M,Felix Moreno,BD,MR-O,120,Raw,,TX,117,,,,,175,180,190,190,240,262.5,-275,262.5,452.5,1991
1,M,Jaisyn Mike,BD,MR-O,120+,Raw,MCG,TX,139.2,,,,,240,250,257.5,257.5,317.5,335,350,350,607.5,1977
1,M,Joe Nathan Ornelas,BD,MR-T,105,Raw,,TX,102.7,,,,,157.5,-170,170,170,252.5,270,275,275,445,1997
1,F,Emilia Kobina,BD,F-O,63,Single-ply,,TX,62.5,,,,,62.5,67.5,-70,67.5,165,170,-177.5,170,237.5,1985
1,F,Agustina Arena,BD,FR-O,63,Raw,,TX,61.1,,,,,55,-57.5,-57.5,55,122.5,130,140,140,195,1992
1,F,Diana Bearden,BD,FR-O,84+,Raw,,TX,112.6,,,,,32.5,35,-40,35,85,102.5,112.5,112.5,147.5,1973
