Division,WeightClassKg,Place,Name,Team,BodyweightKg,Best3SquatKg,Best3BenchKg,Best3DeadliftKg,TotalKg,Equipment,Event,Sex,BirthDate
Boys,51.71,1,Austin Maldonado,Falfurrias,51.71,108.86,65.77,122.47,297.1,Single-ply,SBD,M,
Boys,55.79,1,David Perez,Ben Bolt-Palito Blanco,54.98,154.22,92.99,163.29,410.5,Single-ply,SBD,M,
Boys,59.87,1,James Adams,Odem,59.51,158.76,104.33,167.83,430.91,Single-ply,SBD,M,
Boys,59.87,2,Gavin Gutierrez,Runge,58.51,140.61,81.65,158.76,381.02,Single-ply,SBD,M,
Boys,59.87,3,Makira Yanez,Corpus Christi West Oso,57.88,99.79,58.97,88.45,247.21,Single-ply,SBD,M,
Boys,67.13,1,Joe Fraga,Runge,66.22,179.17,95.25,197.31,471.74,Single-ply,SBD,M,
Boys,67.13,2,John Espinoza,Odem,67.13,176.9,97.52,192.78,467.2,Single-ply,SBD,M,
Boys,67.13,3,Jake Perez,Falfurrias,65.86,106.59,63.5,117.93,288.03,Single-ply,SBD,M,
Boys,67.13,DQ,Ramiro Torres,Runge,66.59,172.37,120.2,,,Single-ply,SBD,M,
Boys,74.84,1,Joseph Chavez,Taft,68.67,170.1,79.38,183.7,433.18,Single-ply,SBD,M,
Boys,74.84,2,Fernando Vega,Corpus Christi West Oso,73.12,131.54,92.99,147.42,371.95,Single-ply,SBD,M,
Boys,74.84,DQ,Alex Beltran,Odem,74.84,,97.52,151.95,,Single-ply,SBD,M,
Boys,74.84,DQ,Alfredo Gomez,Taft,74.84,,83.91,124.74,,Single-ply,SBD,M,
Boys,82.1,1,Arnold Navarro,Ben Bolt-Palito Blanco,79.74,179.17,142.88,192.78,514.83,Single-ply,SBD,M,
Boys,82.1,2,Brody Levine,Runge,78.74,142.88,111.13,172.37,426.38,Single-ply,SBD,M,
Boys,82.1,3,Marcello Nieto,Taft,80.01,142.88,79.38,147.42,369.68,Single-ply,SBD,M,
Boys,89.81,1,Robert Cardenas,Ben Bolt-Palito Blanco,88.36,210.92,165.56,210.92,587.4,Single-ply,SBD,M,
Boys,89.81,2,Brandon Beltran,Odem,89.45,238.14,142.88,195.04,576.06,Single-ply,SBD,M,
Boys,89.81,DQ,Landon Garza,Odem,88.18,215.46,,,,Single-ply,SBD,M,
Boys,89.81,DQ,Daniel Mendoza,Runge,88,,117.93,199.58,,Single-ply,SBD,M,
Boys,99.79,1,Joseph Fillmore,Corpus Christi John Paul II High School,97.43,249.48,136.08,249.48,635.03,Single-ply,SBD,M,
Boys,99.79,2,Troy Reynolds,Runge,96.98,226.8,140.61,165.56,532.97,Single-ply,SBD,M,
Boys,99.79,3,Isaac Reyes,Corpus Christi West Oso,92.53,165.56,136.08,183.7,485.34,Single-ply,SBD,M,
Boys,99.79,4,Michael Longoria #2,Falfurrias,95.62,120.2,88.45,151.95,360.61,Single-ply,SBD,M,
Boys,99.79,DQ,Daniel Tamez,Odem,99.79,235.87,,231.33,,Single-ply,SBD,M,
Boys,109.77,1,Marcos Gonzalez,Ben Bolt-Palito Blanco,107.14,312.98,208.65,294.84,816.47,Single-ply,SBD,M,
Boys,109.77,2,Nico Chavira,Odem,109.77,238.14,145.15,170.1,553.38,Single-ply,SBD,M,
Boys,109.77,3,Thomas Vela,Falfurrias,106.68,111.13,63.5,133.81,308.44,Single-ply,SBD,M,
Boys,124.74,1,Juanito Cabrera,Falfurrias,114.12,260.82,122.47,204.12,587.4,Single-ply,SBD,M,
Boys,124.74,2,Aaron Molina,Falfurrias,113.22,188.24,147.42,183.7,519.36,Single-ply,SBD,M,
Boys,124.74,3,Omar Carbajal,Falfurrias,123.38,192.78,95.25,206.38,494.42,Single-ply,SBD,M,
Boys,139.71+,1,Tony Chavez,Taft,176.08,231.33,102.06,183.7,517.1,Single-ply,SBD,M,
Boys,139.71+,2,Dylon Sequera,Corpus Christi West Oso,150.77,174.63,97.52,156.49,428.64,Single-ply,SBD,M,
Boys,,NS,Brandon Montez,Taft,,,,,,Single-ply,SBD,M,
Boys,,NS,Trent Jones,Runge,,,,,,Single-ply,SBD,M,
Boys,,NS,Jerek Sanchez,Taft,,,,,,Single-ply,SBD,M,
Boys,,NS,Daniel Cantu,Corpus Christi West Oso,,,,,,Single-ply,SBD,M,
Boys,,NS,Nathan Reyes,Corpus Christi West Oso,,,,,,Single-ply,SBD,M,
Boys,,NS,Daniel Esquivel,Corpus Christi West Oso,,,,,,Single-ply,SBD,M,
