Name,BirthDate,BodyweightKg,Division,WeightClassKg,Sex,Squat1Kg,Squat2Kg,Squat3Kg,Best3SquatKg,Bench1Kg,Bench2Kg,Bench3Kg,Best3BenchKg,Deadlift1Kg,Deadlift2Kg,Deadlift3Kg,Best3DeadliftKg,TotalKg,Event,Equipment,Place
Claudia Chu Xin Mei,2001-08-02,42.75,Junior,43,F,65,67.5,72.5,72.5,40,42.5,-46,42.5,95,102.5,-113,102.5,217.5,SBD,Raw,1
Shirley Chu Xin Jin,1999-09-30,46.6,Junior,47,F,102.5,110.5,-115.5,110.5,45,50,-56,50,105,112.5,-120.5,112.5,273,SBD,Raw,1
Ng Li Shan Briana,1998-09-08,46.4,Junior,47,F,62.5,67.5,70,70,30,-35,35,35,80,87.5,92.5,92.5,197.5,SBD,Raw,2
Janice Yap Mei Ern,1981-12-04,50.9,Master 1,52,F,80,85,90.5,90.5,40,42.5,45,45,112.5,120,125,125,260.5,SBD,Raw,1
Quak Jielin,1981-01-19,49.85,Master 1,52,F,72.5,77.5,-82.5,77.5,35,37.5,40,40,100,-107.5,107.5,107.5,225,SBD,Raw,2
Patricia Lynn Meyer,,50.8,Master 3,52,F,62.5,67.5,70,70,35,37.5,-40,37.5,105,110,115,115,222.5,SBD,Raw,1
Farhanna Farid,1992-09-26,51.5,Open,52,F,120,127.5,-130,127.5,57.5,60,62.5,62.5,180,190.5,196,196,386,SBD,Raw,1
Gerlyn Ong Ruo Ting,1991-08-25,51.5,Open,52,F,115,120,-125,120,60,65.5,67,67,120,130,-140,130,317,SBD,Raw,2
Lim Yann,2000-10-01,55.05,Junior,57,F,72.5,77.5,85,85,52.5,57.5,-60,57.5,117.5,122.5,-132.5,122.5,265,SBD,Raw,1
Lee Harn Ninh,2000-10-26,56.3,Junior,57,F,-85,87.5,95,95,40,45,-47.5,45,115,122.5,-135,122.5,262.5,SBD,Raw,2
Emilya Idora Binte Safaruan,1999-10-23,55.8,Junior,57,F,70,77.5,82.5,82.5,45,47.5,50,50,87.5,97.5,105,105,237.5,SBD,Raw,3
Seow Yan Ting Amanda,1990-09-20,55.75,Open,57,F,125,133,-136,133,75,81,83,83,155,165,176,176,392,SBD,Raw,1
Berni Ong Xiu Zhen,1982-07-23,55.65,Open,57,F,90,95,100,100,-57.5,57.5,62.5,62.5,120,125,132.5,132.5,295,SBD,Raw,2
Amilia Koh,1995-06-18,55.4,Open,57,F,90,97.5,-102.5,97.5,40,45,47.5,47.5,145,-155,-155,145,290,SBD,Raw,3
Nur Azimah Binte Nordin,1988-04-05,56.25,Open,57,F,85,95,105,105,45,52.5,57.5,57.5,90,105,112.5,112.5,275,SBD,Raw,4
Chong Ming Xuan,2001-07-19,62.35,Junior,63,F,110,115,-120,115,60,65,-70,65,135,142.5,-150,142.5,322.5,SBD,Raw,1
Nur Farah Iman Binte Mohd Farid,2002-02-23,62.15,Junior,63,F,75,82.5,85,85,42.5,45,-47.5,45,102.5,110,-125,110,240,SBD,Raw,2
Cheam Mei Choo Michelle,1964-12-08,58.65,Master 2,63,F,40,42.5,47.5,47.5,25,27.5,30,30,50,57.5,65,65,142.5,SBD,Raw,1
Farzana Syazwani Binte Amat Sanusi,1996-02-28,62.2,Open,63,F,-75,-75,75,75,40,-42.5,-45,40,90,95,100,100,215,SBD,Raw,1
Nurrashikin Binte Zainal Abidin,1994-09-12,62.15,Open,63,F,-70,-70,70,70,37.5,40,-42.5,40,95,102.5,-107.5,102.5,212.5,SBD,Raw,2
Sylvia Xu Shiyue,1994-03-13,68.05,Open,69,F,105,-107.5,-107.5,105,45,50,-52.5,50,125,130,-132.5,130,285,SBD,Raw,1
Tan Sze Yin,1980-10-24,73.5,Open,76,F,130,137.5,145,145,75,80,-90,80,140,150,165,165,390,SBD,Raw,1
Tan Sze Yin,1980-10-24,73.5,Master 1,76,F,130,137.5,145,145,75,80,-90,80,140,150,165,165,390,SBD,Raw,1
Shehana Zulazmi,1990-09-11,72,Open,76,F,140,145,150,150,60,65,-67.5,65,155,162.5,-175,162.5,377.5,SBD,Raw,2
Chong Ean Qi,2000-01-12,82.85,Junior,84,F,100,107.5,-115,107.5,47.5,52.5,57.5,57.5,117.5,125,132.5,132.5,297.5,SBD,Raw,1
Xie Thuy Tien,1995-08-15,82.15,Open,84,F,145,152.5,160,160,60,65,-67.5,65,162.5,-173,-175.5,162.5,387.5,SBD,Raw,1
Sarah Widjaja,1994-11-06,80.75,Open,84,F,125,127.5,-135,127.5,70,-75,-75,70,160,170,175,175,372.5,SBD,Raw,2
Yunie Yang,1981-06-30,82.7,Open,84,F,105,112.5,120,120,70,75,77.5,77.5,150,160,-172.5,160,357.5,SBD,Raw,3
Selvakumar Kavvya,1997-06-06,83.5,Open,84,F,65,75,80,80,62.5,65,-67.5,65,112.5,120,125,125,270,SBD,Raw,4
Seh Huan Kiat,1974-11-15,117.45,Master 1,120,M,205,215,225.5,225.5,115,-125,125,125,210,225,240,240,590.5,SBD,Raw,1
Kelvin Ng,1976-08-18,118.85,Master 1,120,M,180,190,200,200,97.5,-105,-110,97.5,187.5,-197.5,-210,187.5,485,SBD,Raw,3
Md Badrun Nafis Saion,1975-10-06,116.35,Master 1,120,M,200,210,217.5,217.5,132.5,137.5,-142.5,137.5,220,232.5,-240,232.5,587.5,SBD,Raw,2
Md Badrun Nafis Saion,1975-10-06,116.35,Open,120,M,200,210,217.5,217.5,132.5,137.5,-142.5,137.5,220,232.5,-240,232.5,587.5,SBD,Raw,2
Darryl Eugene Tan Kee Yew,1996-05-27,116,Open,120,M,240,250,256,256,172.5,181,-191,181,275,290,295,295,732,SBD,Raw,1
Muhammed Adam Bin Norman,1992-05-02,107.5,Open,120,M,190,-210,-210,190,120,-135,,120,210,225,242.5,242.5,552.5,SBD,Raw,3
Mohamad Faezal Bin Norizan,1994-11-26,108.45,Open,120,M,165,180,-195,180,110,115,120,120,-170,190,-205,190,490,SBD,Raw,4
Darius Keenwitt Joseph,1998-06-17,81.2,Junior,83,M,205,207.5,220,220,107.5,115,120,120,225,235,245,245,585,SBD,Raw,1
Kim Zi Jie,1998-03-23,80.65,Junior,83,M,180,182.5,200,200,125,135,142.5,142.5,200,212.5,-225,212.5,555,SBD,Raw,2
Chong Yong Fu,2000-05-30,82.7,Junior,83,M,177.5,182.5,187.5,187.5,112.5,115,-120,115,212.5,217.5,220,220,522.5,SBD,Raw,3
Junichi Yokogi,1967-07-21,80.85,Master 2,83,M,165,175,180,180,140,147.5,-150,147.5,185,195,-210,195,522.5,SBD,Raw,1
Teddy Chong Yen Poen,1969-09-07,81.15,Master 2,83,M,130,140,152.5,152.5,90,102.5,-107.5,102.5,140,155,170,170,425,SBD,Raw,2
Christophe Ang,1995-03-05,82.8,Open,83,M,225,240,247.5,247.5,175,185,190.5,190.5,265,282.5,292.5,292.5,730.5,SBD,Raw,1
Chong Wai Kit Kenzo,1995-09-16,82.7,Open,83,M,212.5,225,232.5,232.5,145,-152.5,155,155,252.5,267.5,280,280,667.5,SBD,Raw,2
Tang Qin Xiang Cornelius,1996-08-23,77.2,Open,83,M,220,-227.5,,220,120,122.5,-125,122.5,-245,255,265,265,607.5,SBD,Raw,3
Gabriel Mao Xuan Yu,1994-05-12,78.55,Open,83,M,167.5,175,185,185,135,140,147.5,147.5,247.5,255,267.5,267.5,600,SBD,Raw,4
Ken Oh Wen Wee,1997-04-28,77.3,Open,83,M,155,165,172.5,172.5,95,105,110,110,-190,207.5,217.5,217.5,500,SBD,Raw,5
Mukmin Pitoyo,1997-05-29,81.95,Open,83,M,130,142.5,160,160,85,92.5,100,100,165,180,190,190,450,SBD,Raw,6
Matrix Neo Keong Wee,2003-05-17,75.95,Sub Junior,83,M,195,205,215,215,115,120,122.5,122.5,205,217.5,227.5,227.5,565,SBD,Raw,1
Nigel Png Wei Qi,2003-07-22,78.3,Sub Junior,83,M,157.5,167.5,-172.5,167.5,107.5,112.5,115,115,-192.5,202.5,-215,202.5,485,SBD,Raw,2
Fraser Koh Teck Boon,2003-10-07,80.3,Sub Junior,83,M,155,165,172.5,172.5,105,115,120,120,190,-200,-200,190,482.5,SBD,Raw,3
Harisean Lingam,2000-09-23,89.3,Junior,93,M,177.5,190,197.5,197.5,112.5,120,125,125,-205,205,220,220,542.5,SBD,Raw,1
Woo Chun Hou Isaac,1999-03-03,88.4,Junior,93,M,185,195,-205,195,110,117.5,122.5,122.5,210,220,-227.5,220,537.5,SBD,Raw,2
Adam Jones #1,1987-09-02,92.55,Open,93,M,280,295,-305,295,145,152.5,157.5,157.5,305,317.5,-330,317.5,770,SBD,Raw,1
James Barcelo,1992-10-09,90.75,Open,93,M,197.5,207.5,215,215,135,142.5,147.5,147.5,225,237.5,-252.5,237.5,600,SBD,Raw,3
Adams James Francis,1986-06-01,91.35,Open,93,M,-190,195,202.5,202.5,112.5,122.5,127.5,127.5,-212.5,220,230,230,560,SBD,Raw,4
Low Jing Yi,2004-12-03,90.4,Sub Junior,93,M,200,210,-217.5,210,115,120,122.5,122.5,265,275,-280,275,607.5,SBD,Raw,1
Low Jing Yi,2004-12-03,90.4,Open,93,M,200,210,-217.5,210,115,120,122.5,122.5,265,275,-280,275,607.5,SBD,Raw,2
Shaifulizzam B Mohammad Rouse,1975-10-22,125.6,Master 1,120+,M,205,-210,-210,205,127.5,-132.5,-132.5,127.5,240,252.5,-260,252.5,585,SBD,Raw,1
Muhammad Razzif Bin Rapii,1995-10-15,155.9,Open,120+,M,180,220,-245,220,120,,,120,200,220,,220,560,SBD,Raw,1
Moritz Langwallner,2002-04-12,99.1,Junior,105,M,195,205,215,215,115,122.5,130,130,225,240,245,245,590,SBD,Raw,1
Mohd Yasir Almakky Harun,1972-07-28,100.8,Master 1,105,M,195,202.5,205,205,125,127.5,-140,127.5,200,210,,210,542.5,SBD,Raw,1
Mohd Yasir Almakky Harun,1972-07-28,100.8,Open,105,M,195,202.5,205,205,125,127.5,-140,127.5,200,210,,210,542.5,SBD,Raw,6
Lim Liang En,1997-12-26,101.8,Open,105,M,227.5,237.5,245,245,135,-142.5,145,145,-255,255,270,270,660,SBD,Raw,1
Shee Dao Sen,1997-12-22,102.65,Open,105,M,190,202.5,212.5,212.5,152.5,162.5,-167.5,162.5,235,250,260,260,635,SBD,Raw,2
Yong You Liang Joben,1997-10-02,95.95,Open,105,M,210,220,230,230,130,-137.5,-137.5,130,240,250,-265,250,610,SBD,Raw,3
Goo Young Kang,1993-11-24,104.15,Open,105,M,180,190,200,200,140,147.5,155,155,210,220,240,240,595,SBD,Raw,4
Tan Hong Jin Ezekiel,1996-02-07,95.55,Open,105,M,200,-215,215,215,122.5,-127.5,-127.5,122.5,205,-215,215,215,552.5,SBD,Raw,5
Ee Sui Xin Lucien,2004-04-15,103.8,Sub Junior,105,M,205,212.5,222.5,222.5,110,117.5,-122.5,117.5,210,220,,220,560,SBD,Raw,1
Matthias Yap,2000-09-27,73.75,Junior,74,M,210,220,225,225,112.5,120,122.5,122.5,225,-230,235,235,582.5,SBD,Raw,1
Ryan Low Tse Loong,2000-08-30,73.15,Junior,74,M,187.5,197.5,207.5,207.5,115,117.5,125,125,220,230,240,240,572.5,SBD,Raw,2
Tan Kian Tong,2000-12-16,72.85,Junior,74,M,-185,185,190,190,150,-156.5,-156.5,150,210,-220,220,220,560,SBD,Raw,3
Joel Tan Zheng How,2000-06-11,69.75,Junior,74,M,160,170,180,180,95,102.5,,102.5,200,220,232.5,232.5,515,SBD,Raw,4
Mark Anthony Enriquez,1980-01-11,72.8,Master 1,74,M,155,162.5,170.5,170.5,115,125.5,127.5,127.5,180,195,-205,195,493,SBD,Raw,1
Tetsuo Koike,1970-04-28,73.5,Master 2,74,M,135,-142.5,142.5,142.5,117.5,125,-127.5,125,180,190,200,200,467.5,SBD,Raw,1
P Vinoth,1995-07-01,72.8,Open,74,M,225,237.5,245,245,137.5,145,-147.5,145,245,260,270,270,660,SBD,Raw,1
Cheong Cheng Wen,1997-03-08,73.15,Open,74,M,212.5,220,-222.5,220,135,140,145,145,-267.5,267.5,-285,267.5,632.5,SBD,Raw,3
Lee Wei Bin,,73.3,Open,74,M,187.5,-197.5,197.5,197.5,127.5,132.5,-137.5,132.5,250,260,-270,260,590,SBD,Raw,4
Yong Fen Yit,1993-10-06,73.7,Open,74,M,165,177.5,182.5,182.5,127.5,-132.5,-135,127.5,205,225,230,230,540,SBD,Raw,5
Evan Joshua Lim,1987-04-24,74,Open,74,M,162.5,170,175,175,112.5,120,122.5,122.5,205,215,225,225,522.5,SBD,Raw,6
Khairul Asyraf Bin Fadzillah,1991-10-10,72.4,Open,74,M,155,167.5,-177.5,167.5,107.5,117.5,125,125,197.5,217.5,225,225,517.5,SBD,Raw,7
Kwan Ting Geoffrey Chung,1989-07-11,73.95,Open,74,M,155,-165,165,165,125,135,-140,135,190,205,-217.5,205,505,SBD,Raw,8
Loh Khian Chung,1985-10-07,72.1,Open,74,M,142.5,152.5,-157.5,152.5,102.5,110,-115,110,170,177.5,182.5,182.5,445,SBD,Raw,9
Khoo Jun An,1997-06-01,73.85,Open,74,M,135,145,147.5,147.5,72.5,77.5,80,80,165,175,182.5,182.5,410,SBD,Raw,10
Leow Jun Quan Sherwin,2003-02-04,71.55,Sub Junior,74,M,145,155,165,165,115,-120,-120,115,165,177.5,187.5,187.5,467.5,SBD,Raw,2
Ng Keng Juay Dylan,2004-11-30,73.15,Sub Junior,74,M,182.5,-195,-200,182.5,-90,90,-97.5,90,185,-195,-200,185,457.5,SBD,Raw,3
Nigel Ng Wei Jun,2003-04-03,73.7,Sub Junior,74,M,220,230.5,-232.5,230.5,-140,140,150,150,247.5,265,-272.5,265,645.5,SBD,Raw,1
Nigel Ng Wei Jun,2003-04-03,73.7,Open,74,M,220,230.5,-232.5,230.5,-140,140,150,150,247.5,265,-272.5,265,645.5,SBD,Raw,2
Shaun Tan Jia Jun,2000-10-24,55.8,Junior,59,M,142.5,152.5,155,155,77.5,-85,-85,77.5,180,192.5,200,200,432.5,SBD,Raw,2
Chiok Wei Ping,1998-05-14,58.4,Junior,59,M,145,152.5,160,160,82.5,90,92.5,92.5,190,205,-226,205,457.5,SBD,Raw,1
Chiok Wei Ping,1998-05-14,58.4,Open,59,M,145,152.5,160,160,82.5,90,92.5,92.5,190,205,-226,205,457.5,SBD,Raw,2
Lee Chee Wan,1997-11-17,57.9,Open,59,M,147.5,157.5,165,165,92.5,100,105,105,-185,200,207.5,207.5,477.5,SBD,Raw,1
Too Chin Siang,1991-07-09,59,Open,59,M,-190,-190,-190,,107.5,112.5,-115,112.5,180,195,,195,,SBD,Raw,DQ
Leo Li Ziqi,2005-05-01,57.6,Sub Junior,59,M,150.5,158,161,161,82.5,90,-92.5,90,165,177.5,-182.5,177.5,428.5,SBD,Raw,1
Koh Xin Miao,1998-11-07,65.1,Junior,66,M,192.5,207.5,216.5,216.5,127.5,135.5,140.5,140.5,215,231.5,242.5,242.5,599.5,SBD,Raw,1
Koh Xuan Ming Adam,2000-05-23,64.85,Junior,66,M,172.5,185,195,195,100,107.5,115,115,187.5,200,-210,200,510,SBD,Raw,2
Nathan Ho Li Rui,2000-10-20,65,Junior,66,M,165,177.5,185,185,95,-105,-105,95,205,215,220,220,500,SBD,Raw,3
Tan Yong Pepin,1998-02-09,64.15,Junior,66,M,180,192.5,-197.5,192.5,100,-107.5,-107.5,100,-195,200,205,205,497.5,SBD,Raw,4
Kwan Ying Zhie Samuel,2002-03-15,65.25,Junior,66,M,165,175,-177.5,175,-115,115,-122.5,115,175,187.5,205,205,495,SBD,Raw,5
Chong Ee Veen,2002-11-27,63.6,Junior,66,M,165,167.5,-175,167.5,-115,117.5,-120,117.5,200,-205,-205,200,485,SBD,Raw,6
Gabriel Christopher Manuel Roldan,2000-03-27,65.65,Junior,66,M,167.5,172.5,182.5,182.5,-90,92.5,95,95,205,-210,-212.5,205,482.5,SBD,Raw,7
Tok Chee Hng Keefe,1998-07-19,63.85,Junior,66,M,165,167.5,-180,167.5,110,-112.5,112.5,112.5,185,,,185,465,SBD,Raw,8
Nigel Lim Wei Xuan,1998-11-14,64.75,Junior,66,M,-135,135,-140,135,110,115,120,120,-197.5,-197.5,197.5,197.5,452.5,SBD,Raw,9
Tan Tian Hu Joel,2002-10-17,63.25,Junior,66,M,150,160,-165,160,95,100,-102.5,100,160,170,-180,170,430,SBD,Raw,10
Ong Wei Chaai,1995-08-28,66,Open,66,M,192.5,207.5,216,216,105,112.5,117.5,117.5,240,256,266.5,266.5,600,SBD,Raw,1
Jun Jie Ng,1994-05-21,65.75,Open,66,M,185,195,200,200,135,140,-145,140,195,210,215,215,555,SBD,Raw,2
Mervin Ortono,1991-09-11,64.8,Open,66,M,175,190,195,195,92.5,97.5,-102.5,97.5,207.5,230,-240,230,522.5,SBD,Raw,3
Joshua Lee Yi,1994-01-08,65.45,Open,66,M,180,-192.5,-192.5,180,-127.5,127.5,-130,127.5,180,182.5,200,200,507.5,SBD,Raw,4
Glenn Yeong,1997-09-27,62.4,Open,66,M,150,160,-165,160,100,107.5,-112.5,107.5,190,200,-212.5,200,467.5,SBD,Raw,5
Piret Donald Vitas M,1984-12-10,65.4,Open,66,M,132.5,140,145,145,102.5,107.5,-110,107.5,180,190,-200,190,442.5,SBD,Raw,6
Jarrell Soon Bing-Yang,2003-07-14,65.3,Sub Junior,66,M,175,185,187.5,187.5,112.5,115,117.5,117.5,195,205,212.5,212.5,517.5,SBD,Raw,1
Adam Bin Azmi,2004-07-02,63.8,Sub Junior,66,M,132.5,140,-145,140,57.5,62.5,65,65,147.5,157.5,162.5,162.5,367.5,SBD,Raw,2
